cant_elementos,tiempo,algoritmo
1,6e-09,O(2^n)*0.000000003
1,0.0010247230529785156,Fuerza bruta para mejor-caso-BT-O
1,0.0012884140014648438,Fuerza bruta para mejor-caso-BT-F
2,1.2e-08,O(2^n)*0.000000003
2,0.001039266586303711,Fuerza bruta para mejor-caso-BT-O
2,0.000988006591796875,Fuerza bruta para mejor-caso-BT-F
3,2.4e-08,O(2^n)*0.000000003
3,0.0009746551513671875,Fuerza bruta para mejor-caso-BT-O
3,0.0010459423065185547,Fuerza bruta para mejor-caso-BT-F
4,4.8e-08,O(2^n)*0.000000003
4,0.0009870529174804688,Fuerza bruta para mejor-caso-BT-O
4,0.0010123252868652344,Fuerza bruta para mejor-caso-BT-F
5,9.6e-08,O(2^n)*0.000000003
5,0.0009701251983642578,Fuerza bruta para mejor-caso-BT-O
5,0.0009565353393554688,Fuerza bruta para mejor-caso-BT-F
6,1.92e-07,O(2^n)*0.000000003
6,0.0010044574737548828,Fuerza bruta para mejor-caso-BT-O
6,0.0009665489196777344,Fuerza bruta para mejor-caso-BT-F
7,3.84e-07,O(2^n)*0.000000003
7,0.0010230541229248047,Fuerza bruta para mejor-caso-BT-O
7,0.0010044574737548828,Fuerza bruta para mejor-caso-BT-F
8,7.68e-07,O(2^n)*0.000000003
8,0.0010111331939697266,Fuerza bruta para mejor-caso-BT-O
8,0.0010204315185546875,Fuerza bruta para mejor-caso-BT-F
9,1.536e-06,O(2^n)*0.000000003
9,0.0010082721710205078,Fuerza bruta para mejor-caso-BT-O
9,0.0010581016540527344,Fuerza bruta para mejor-caso-BT-F
10,3.072e-06,O(2^n)*0.000000003
10,0.0009799003601074219,Fuerza bruta para mejor-caso-BT-O
10,0.0010058879852294922,Fuerza bruta para mejor-caso-BT-F
11,6.144e-06,O(2^n)*0.000000003
11,0.0009894371032714844,Fuerza bruta para mejor-caso-BT-O
11,0.0009672641754150391,Fuerza bruta para mejor-caso-BT-F
12,1.2288e-05,O(2^n)*0.000000003
12,0.0010266304016113281,Fuerza bruta para mejor-caso-BT-O
12,0.0010483264923095703,Fuerza bruta para mejor-caso-BT-F
13,2.4576e-05,O(2^n)*0.000000003
13,0.0010488033294677734,Fuerza bruta para mejor-caso-BT-O
13,0.0010170936584472656,Fuerza bruta para mejor-caso-BT-F
14,4.9152e-05,O(2^n)*0.000000003
14,0.0010724067687988281,Fuerza bruta para mejor-caso-BT-O
14,0.0010519027709960938,Fuerza bruta para mejor-caso-BT-F
15,9.8304e-05,O(2^n)*0.000000003
15,0.0011217594146728516,Fuerza bruta para mejor-caso-BT-O
15,0.001245737075805664,Fuerza bruta para mejor-caso-BT-F
16,0.000196608,O(2^n)*0.000000003
16,0.0011911392211914062,Fuerza bruta para mejor-caso-BT-O
16,0.0012171268463134766,Fuerza bruta para mejor-caso-BT-F
17,0.000393216,O(2^n)*0.000000003
17,0.0014781951904296875,Fuerza bruta para mejor-caso-BT-O
17,0.0015876293182373047,Fuerza bruta para mejor-caso-BT-F
18,0.000786432,O(2^n)*0.000000003
18,0.002012491226196289,Fuerza bruta para mejor-caso-BT-O
18,0.0019948482513427734,Fuerza bruta para mejor-caso-BT-F
19,0.001572864,O(2^n)*0.000000003
19,0.0028879642486572266,Fuerza bruta para mejor-caso-BT-O
19,0.0032885074615478516,Fuerza bruta para mejor-caso-BT-F
20,0.003145728,O(2^n)*0.000000003
20,0.004770040512084961,Fuerza bruta para mejor-caso-BT-O
20,0.004832267761230469,Fuerza bruta para mejor-caso-BT-F
21,0.006291456,O(2^n)*0.000000003
21,0.008475542068481445,Fuerza bruta para mejor-caso-BT-O
21,0.0087890625,Fuerza bruta para mejor-caso-BT-F
22,0.012582912,O(2^n)*0.000000003
22,0.01620340347290039,Fuerza bruta para mejor-caso-BT-O
22,0.016702651977539062,Fuerza bruta para mejor-caso-BT-F
23,0.025165824,O(2^n)*0.000000003
23,0.030623435974121094,Fuerza bruta para mejor-caso-BT-O
23,0.03218984603881836,Fuerza bruta para mejor-caso-BT-F
24,0.050331648,O(2^n)*0.000000003
24,0.05978822708129883,Fuerza bruta para mejor-caso-BT-O
24,0.06293082237243652,Fuerza bruta para mejor-caso-BT-F
25,0.100663296,O(2^n)*0.000000003
25,0.11709380149841309,Fuerza bruta para mejor-caso-BT-O
25,0.122467041015625,Fuerza bruta para mejor-caso-BT-F
26,0.201326592,O(2^n)*0.000000003
26,0.231414794921875,Fuerza bruta para mejor-caso-BT-O
26,0.2426600456237793,Fuerza bruta para mejor-caso-BT-F
27,0.402653184,O(2^n)*0.000000003
27,0.5019650459289551,Fuerza bruta para mejor-caso-BT-O
27,0.5248532295227051,Fuerza bruta para mejor-caso-BT-F
28,0.805306368,O(2^n)*0.000000003
28,0.9519634246826172,Fuerza bruta para mejor-caso-BT-O
28,0.9838047027587891,Fuerza bruta para mejor-caso-BT-F
29,1.610612736,O(2^n)*0.000000003
29,1.8641202449798584,Fuerza bruta para mejor-caso-BT-O
29,1.9097177982330322,Fuerza bruta para mejor-caso-BT-F
30,3.221225472,O(2^n)*0.000000003
30,3.670908212661743,Fuerza bruta para mejor-caso-BT-O
30,3.8249454498291016,Fuerza bruta para mejor-caso-BT-F
