dataset,instancia,n,W,archivo
mejor-caso-bt,BT-MC-10,10,1000,instancias/mejor-caso-bt/BT-MC-10.txt
mejor-caso-bt,BT-MC-20,20,1000,instancias/mejor-caso-bt/BT-MC-20.txt
mejor-caso-bt,BT-MC-30,30,1000,instancias/mejor-caso-bt/BT-MC-30.txt
mejor-caso-bt,BT-MC-40,40,1000,instancias/mejor-caso-bt/BT-MC-40.txt
mejor-caso-bt,BT-MC-50,50,1000,instancias/mejor-caso-bt/BT-MC-50.txt
mejor-caso-bt,BT-MC-60,60,1000,instancias/mejor-caso-bt/BT-MC-60.txt
mejor-caso-bt,BT-MC-70,70,1000,instancias/mejor-caso-bt/BT-MC-70.txt
mejor-caso-bt,BT-MC-80,80,1000,instancias/mejor-caso-bt/BT-MC-80.txt
mejor-caso-bt,BT-MC-90,90,1000,instancias/mejor-caso-bt/BT-MC-90.txt
mejor-caso-bt,BT-MC-100,100,1000,instancias/mejor-caso-bt/BT-MC-100.txt
mejor-caso-bt,BT-MC-110,110,1000,instancias/mejor-caso-bt/BT-MC-110.txt
mejor-caso-bt,BT-MC-120,120,1000,instancias/mejor-caso-bt/BT-MC-120.txt
mejor-caso-bt,BT-MC-130,130,1000,instancias/mejor-caso-bt/BT-MC-130.txt
mejor-caso-bt,BT-MC-140,140,1000,instancias/mejor-caso-bt/BT-MC-140.txt
mejor-caso-bt,BT-MC-150,150,1000,instancias/mejor-caso-bt/BT-MC-150.txt
mejor-caso-bt,BT-MC-160,160,1000,instancias/mejor-caso-bt/BT-MC-160.txt
mejor-caso-bt,BT-MC-170,170,1000,instancias/mejor-caso-bt/BT-MC-170.txt
mejor-caso-bt,BT-MC-180,180,1000,instancias/mejor-caso-bt/BT-MC-180.txt
mejor-caso-bt,BT-MC-190,190,1000,instancias/mejor-caso-bt/BT-MC-190.txt
mejor-caso-bt,BT-MC-200,200,1000,instancias/mejor-caso-bt/BT-MC-200.txt
mejor-caso-bt,BT-MC-210,210,1000,instancias/mejor-caso-bt/BT-MC-210.txt
mejor-caso-bt,BT-MC-220,220,1000,instancias/mejor-caso-bt/BT-MC-220.txt
mejor-caso-bt,BT-MC-230,230,1000,instancias/mejor-caso-bt/BT-MC-230.txt
mejor-caso-bt,BT-MC-240,240,1000,instancias/mejor-caso-bt/BT-MC-240.txt
mejor-caso-bt,BT-MC-250,250,1000,instancias/mejor-caso-bt/BT-MC-250.txt
mejor-caso-bt,BT-MC-260,260,1000,instancias/mejor-caso-bt/BT-MC-260.txt
mejor-caso-bt,BT-MC-270,270,1000,instancias/mejor-caso-bt/BT-MC-270.txt
mejor-caso-bt,BT-MC-280,280,1000,instancias/mejor-caso-bt/BT-MC-280.txt
mejor-caso-bt,BT-MC-290,290,1000,instancias/mejor-caso-bt/BT-MC-290.txt
mejor-caso-bt,BT-MC-300,300,1000,instancias/mejor-caso-bt/BT-MC-300.txt
mejor-caso-bt,BT-MC-310,310,1000,instancias/mejor-caso-bt/BT-MC-310.txt
mejor-caso-bt,BT-MC-320,320,1000,instancias/mejor-caso-bt/BT-MC-320.txt
mejor-caso-bt,BT-MC-330,330,1000,instancias/mejor-caso-bt/BT-MC-330.txt
mejor-caso-bt,BT-MC-340,340,1000,instancias/mejor-caso-bt/BT-MC-340.txt
mejor-caso-bt,BT-MC-350,350,1000,instancias/mejor-caso-bt/BT-MC-350.txt
mejor-caso-bt,BT-MC-360,360,1000,instancias/mejor-caso-bt/BT-MC-360.txt
mejor-caso-bt,BT-MC-370,370,1000,instancias/mejor-caso-bt/BT-MC-370.txt
mejor-caso-bt,BT-MC-380,380,1000,instancias/mejor-caso-bt/BT-MC-380.txt
mejor-caso-bt,BT-MC-390,390,1000,instancias/mejor-caso-bt/BT-MC-390.txt
mejor-caso-bt,BT-MC-400,400,1000,instancias/mejor-caso-bt/BT-MC-400.txt
mejor-caso-bt,BT-MC-410,410,1000,instancias/mejor-caso-bt/BT-MC-410.txt
mejor-caso-bt,BT-MC-420,420,1000,instancias/mejor-caso-bt/BT-MC-420.txt
mejor-caso-bt,BT-MC-430,430,1000,instancias/mejor-caso-bt/BT-MC-430.txt
mejor-caso-bt,BT-MC-440,440,1000,instancias/mejor-caso-bt/BT-MC-440.txt
mejor-caso-bt,BT-MC-450,450,1000,instancias/mejor-caso-bt/BT-MC-450.txt
mejor-caso-bt,BT-MC-460,460,1000,instancias/mejor-caso-bt/BT-MC-460.txt
mejor-caso-bt,BT-MC-470,470,1000,instancias/mejor-caso-bt/BT-MC-470.txt
mejor-caso-bt,BT-MC-480,480,1000,instancias/mejor-caso-bt/BT-MC-480.txt
mejor-caso-bt,BT-MC-490,490,1000,instancias/mejor-caso-bt/BT-MC-490.txt
mejor-caso-bt,BT-MC-500,500,1000,instancias/mejor-caso-bt/BT-MC-500.txt
mejor-caso-bt,BT-MC-510,510,1000,instancias/mejor-caso-bt/BT-MC-510.txt
mejor-caso-bt,BT-MC-520,520,1000,instancias/mejor-caso-bt/BT-MC-520.txt
mejor-caso-bt,BT-MC-530,530,1000,instancias/mejor-caso-bt/BT-MC-530.txt
mejor-caso-bt,BT-MC-540,540,1000,instancias/mejor-caso-bt/BT-MC-540.txt
mejor-caso-bt,BT-MC-550,550,1000,instancias/mejor-caso-bt/BT-MC-550.txt
mejor-caso-bt,BT-MC-560,560,1000,instancias/mejor-caso-bt/BT-MC-560.txt
mejor-caso-bt,BT-MC-570,570,1000,instancias/mejor-caso-bt/BT-MC-570.txt
mejor-caso-bt,BT-MC-580,580,1000,instancias/mejor-caso-bt/BT-MC-580.txt
mejor-caso-bt,BT-MC-590,590,1000,instancias/mejor-caso-bt/BT-MC-590.txt
mejor-caso-bt,BT-MC-600,600,1000,instancias/mejor-caso-bt/BT-MC-600.txt
mejor-caso-bt,BT-MC-610,610,1000,instancias/mejor-caso-bt/BT-MC-610.txt
mejor-caso-bt,BT-MC-620,620,1000,instancias/mejor-caso-bt/BT-MC-620.txt
mejor-caso-bt,BT-MC-630,630,1000,instancias/mejor-caso-bt/BT-MC-630.txt
mejor-caso-bt,BT-MC-640,640,1000,instancias/mejor-caso-bt/BT-MC-640.txt
mejor-caso-bt,BT-MC-650,650,1000,instancias/mejor-caso-bt/BT-MC-650.txt
mejor-caso-bt,BT-MC-660,660,1000,instancias/mejor-caso-bt/BT-MC-660.txt
mejor-caso-bt,BT-MC-670,670,1000,instancias/mejor-caso-bt/BT-MC-670.txt
mejor-caso-bt,BT-MC-680,680,1000,instancias/mejor-caso-bt/BT-MC-680.txt
mejor-caso-bt,BT-MC-690,690,1000,instancias/mejor-caso-bt/BT-MC-690.txt
mejor-caso-bt,BT-MC-700,700,1000,instancias/mejor-caso-bt/BT-MC-700.txt
mejor-caso-bt,BT-MC-710,710,1000,instancias/mejor-caso-bt/BT-MC-710.txt
mejor-caso-bt,BT-MC-720,720,1000,instancias/mejor-caso-bt/BT-MC-720.txt
mejor-caso-bt,BT-MC-730,730,1000,instancias/mejor-caso-bt/BT-MC-730.txt
mejor-caso-bt,BT-MC-740,740,1000,instancias/mejor-caso-bt/BT-MC-740.txt
mejor-caso-bt,BT-MC-750,750,1000,instancias/mejor-caso-bt/BT-MC-750.txt
mejor-caso-bt,BT-MC-760,760,1000,instancias/mejor-caso-bt/BT-MC-760.txt
mejor-caso-bt,BT-MC-770,770,1000,instancias/mejor-caso-bt/BT-MC-770.txt
mejor-caso-bt,BT-MC-780,780,1000,instancias/mejor-caso-bt/BT-MC-780.txt
mejor-caso-bt,BT-MC-790,790,1000,instancias/mejor-caso-bt/BT-MC-790.txt
mejor-caso-bt,BT-MC-800,800,1000,instancias/mejor-caso-bt/BT-MC-800.txt
mejor-caso-bt,BT-MC-810,810,1000,instancias/mejor-caso-bt/BT-MC-810.txt
mejor-caso-bt,BT-MC-820,820,1000,instancias/mejor-caso-bt/BT-MC-820.txt
mejor-caso-bt,BT-MC-830,830,1000,instancias/mejor-caso-bt/BT-MC-830.txt
mejor-caso-bt,BT-MC-840,840,1000,instancias/mejor-caso-bt/BT-MC-840.txt
mejor-caso-bt,BT-MC-850,850,1000,instancias/mejor-caso-bt/BT-MC-850.txt
mejor-caso-bt,BT-MC-860,860,1000,instancias/mejor-caso-bt/BT-MC-860.txt
mejor-caso-bt,BT-MC-870,870,1000,instancias/mejor-caso-bt/BT-MC-870.txt
mejor-caso-bt,BT-MC-880,880,1000,instancias/mejor-caso-bt/BT-MC-880.txt
mejor-caso-bt,BT-MC-890,890,1000,instancias/mejor-caso-bt/BT-MC-890.txt
mejor-caso-bt,BT-MC-900,900,1000,instancias/mejor-caso-bt/BT-MC-900.txt
mejor-caso-bt,BT-MC-910,910,1000,instancias/mejor-caso-bt/BT-MC-910.txt
mejor-caso-bt,BT-MC-920,920,1000,instancias/mejor-caso-bt/BT-MC-920.txt
mejor-caso-bt,BT-MC-930,930,1000,instancias/mejor-caso-bt/BT-MC-930.txt
mejor-caso-bt,BT-MC-940,940,1000,instancias/mejor-caso-bt/BT-MC-940.txt
mejor-caso-bt,BT-MC-950,950,1000,instancias/mejor-caso-bt/BT-MC-950.txt
mejor-caso-bt,BT-MC-960,960,1000,instancias/mejor-caso-bt/BT-MC-960.txt
mejor-caso-bt,BT-MC-970,970,1000,instancias/mejor-caso-bt/BT-MC-970.txt
mejor-caso-bt,BT-MC-980,980,1000,instancias/mejor-caso-bt/BT-MC-980.txt
mejor-caso-bt,BT-MC-990,990,1000,instancias/mejor-caso-bt/BT-MC-990.txt
mejor-caso-bt,BT-MC-1000,1000,1000,instancias/mejor-caso-bt/BT-MC-1000.txt
mejor-caso-bt,BT-MC-1010,1010,1000,instancias/mejor-caso-bt/BT-MC-1010.txt
mejor-caso-bt,BT-MC-1020,1020,1000,instancias/mejor-caso-bt/BT-MC-1020.txt
mejor-caso-bt,BT-MC-1030,1030,1000,instancias/mejor-caso-bt/BT-MC-1030.txt
mejor-caso-bt,BT-MC-1040,1040,1000,instancias/mejor-caso-bt/BT-MC-1040.txt
mejor-caso-bt,BT-MC-1050,1050,1000,instancias/mejor-caso-bt/BT-MC-1050.txt
mejor-caso-bt,BT-MC-1060,1060,1000,instancias/mejor-caso-bt/BT-MC-1060.txt
mejor-caso-bt,BT-MC-1070,1070,1000,instancias/mejor-caso-bt/BT-MC-1070.txt
mejor-caso-bt,BT-MC-1080,1080,1000,instancias/mejor-caso-bt/BT-MC-1080.txt
mejor-caso-bt,BT-MC-1090,1090,1000,instancias/mejor-caso-bt/BT-MC-1090.txt
mejor-caso-bt,BT-MC-1100,1100,1000,instancias/mejor-caso-bt/BT-MC-1100.txt
mejor-caso-bt,BT-MC-1110,1110,1000,instancias/mejor-caso-bt/BT-MC-1110.txt
mejor-caso-bt,BT-MC-1120,1120,1000,instancias/mejor-caso-bt/BT-MC-1120.txt
mejor-caso-bt,BT-MC-1130,1130,1000,instancias/mejor-caso-bt/BT-MC-1130.txt
mejor-caso-bt,BT-MC-1140,1140,1000,instancias/mejor-caso-bt/BT-MC-1140.txt
mejor-caso-bt,BT-MC-1150,1150,1000,instancias/mejor-caso-bt/BT-MC-1150.txt
mejor-caso-bt,BT-MC-1160,1160,1000,instancias/mejor-caso-bt/BT-MC-1160.txt
mejor-caso-bt,BT-MC-1170,1170,1000,instancias/mejor-caso-bt/BT-MC-1170.txt
mejor-caso-bt,BT-MC-1180,1180,1000,instancias/mejor-caso-bt/BT-MC-1180.txt
mejor-caso-bt,BT-MC-1190,1190,1000,instancias/mejor-caso-bt/BT-MC-1190.txt
mejor-caso-bt,BT-MC-1200,1200,1000,instancias/mejor-caso-bt/BT-MC-1200.txt
mejor-caso-bt,BT-MC-1210,1210,1000,instancias/mejor-caso-bt/BT-MC-1210.txt
mejor-caso-bt,BT-MC-1220,1220,1000,instancias/mejor-caso-bt/BT-MC-1220.txt
mejor-caso-bt,BT-MC-1230,1230,1000,instancias/mejor-caso-bt/BT-MC-1230.txt
mejor-caso-bt,BT-MC-1240,1240,1000,instancias/mejor-caso-bt/BT-MC-1240.txt
mejor-caso-bt,BT-MC-1250,1250,1000,instancias/mejor-caso-bt/BT-MC-1250.txt
mejor-caso-bt,BT-MC-1260,1260,1000,instancias/mejor-caso-bt/BT-MC-1260.txt
mejor-caso-bt,BT-MC-1270,1270,1000,instancias/mejor-caso-bt/BT-MC-1270.txt
mejor-caso-bt,BT-MC-1280,1280,1000,instancias/mejor-caso-bt/BT-MC-1280.txt
mejor-caso-bt,BT-MC-1290,1290,1000,instancias/mejor-caso-bt/BT-MC-1290.txt
mejor-caso-bt,BT-MC-1300,1300,1000,instancias/mejor-caso-bt/BT-MC-1300.txt
mejor-caso-bt,BT-MC-1310,1310,1000,instancias/mejor-caso-bt/BT-MC-1310.txt
mejor-caso-bt,BT-MC-1320,1320,1000,instancias/mejor-caso-bt/BT-MC-1320.txt
mejor-caso-bt,BT-MC-1330,1330,1000,instancias/mejor-caso-bt/BT-MC-1330.txt
mejor-caso-bt,BT-MC-1340,1340,1000,instancias/mejor-caso-bt/BT-MC-1340.txt
mejor-caso-bt,BT-MC-1350,1350,1000,instancias/mejor-caso-bt/BT-MC-1350.txt
mejor-caso-bt,BT-MC-1360,1360,1000,instancias/mejor-caso-bt/BT-MC-1360.txt
mejor-caso-bt,BT-MC-1370,1370,1000,instancias/mejor-caso-bt/BT-MC-1370.txt
mejor-caso-bt,BT-MC-1380,1380,1000,instancias/mejor-caso-bt/BT-MC-1380.txt
mejor-caso-bt,BT-MC-1390,1390,1000,instancias/mejor-caso-bt/BT-MC-1390.txt
mejor-caso-bt,BT-MC-1400,1400,1000,instancias/mejor-caso-bt/BT-MC-1400.txt
mejor-caso-bt,BT-MC-1410,1410,1000,instancias/mejor-caso-bt/BT-MC-1410.txt
mejor-caso-bt,BT-MC-1420,1420,1000,instancias/mejor-caso-bt/BT-MC-1420.txt
mejor-caso-bt,BT-MC-1430,1430,1000,instancias/mejor-caso-bt/BT-MC-1430.txt
mejor-caso-bt,BT-MC-1440,1440,1000,instancias/mejor-caso-bt/BT-MC-1440.txt
mejor-caso-bt,BT-MC-1450,1450,1000,instancias/mejor-caso-bt/BT-MC-1450.txt
mejor-caso-bt,BT-MC-1460,1460,1000,instancias/mejor-caso-bt/BT-MC-1460.txt
mejor-caso-bt,BT-MC-1470,1470,1000,instancias/mejor-caso-bt/BT-MC-1470.txt
mejor-caso-bt,BT-MC-1480,1480,1000,instancias/mejor-caso-bt/BT-MC-1480.txt
mejor-caso-bt,BT-MC-1490,1490,1000,instancias/mejor-caso-bt/BT-MC-1490.txt
mejor-caso-bt,BT-MC-1500,1500,1000,instancias/mejor-caso-bt/BT-MC-1500.txt
mejor-caso-bt,BT-MC-1510,1510,1000,instancias/mejor-caso-bt/BT-MC-1510.txt
mejor-caso-bt,BT-MC-1520,1520,1000,instancias/mejor-caso-bt/BT-MC-1520.txt
mejor-caso-bt,BT-MC-1530,1530,1000,instancias/mejor-caso-bt/BT-MC-1530.txt
mejor-caso-bt,BT-MC-1540,1540,1000,instancias/mejor-caso-bt/BT-MC-1540.txt
mejor-caso-bt,BT-MC-1550,1550,1000,instancias/mejor-caso-bt/BT-MC-1550.txt
mejor-caso-bt,BT-MC-1560,1560,1000,instancias/mejor-caso-bt/BT-MC-1560.txt
mejor-caso-bt,BT-MC-1570,1570,1000,instancias/mejor-caso-bt/BT-MC-1570.txt
mejor-caso-bt,BT-MC-1580,1580,1000,instancias/mejor-caso-bt/BT-MC-1580.txt
mejor-caso-bt,BT-MC-1590,1590,1000,instancias/mejor-caso-bt/BT-MC-1590.txt
mejor-caso-bt,BT-MC-1600,1600,1000,instancias/mejor-caso-bt/BT-MC-1600.txt
mejor-caso-bt,BT-MC-1610,1610,1000,instancias/mejor-caso-bt/BT-MC-1610.txt
mejor-caso-bt,BT-MC-1620,1620,1000,instancias/mejor-caso-bt/BT-MC-1620.txt
mejor-caso-bt,BT-MC-1630,1630,1000,instancias/mejor-caso-bt/BT-MC-1630.txt
mejor-caso-bt,BT-MC-1640,1640,1000,instancias/mejor-caso-bt/BT-MC-1640.txt
mejor-caso-bt,BT-MC-1650,1650,1000,instancias/mejor-caso-bt/BT-MC-1650.txt
mejor-caso-bt,BT-MC-1660,1660,1000,instancias/mejor-caso-bt/BT-MC-1660.txt
mejor-caso-bt,BT-MC-1670,1670,1000,instancias/mejor-caso-bt/BT-MC-1670.txt
mejor-caso-bt,BT-MC-1680,1680,1000,instancias/mejor-caso-bt/BT-MC-1680.txt
mejor-caso-bt,BT-MC-1690,1690,1000,instancias/mejor-caso-bt/BT-MC-1690.txt
mejor-caso-bt,BT-MC-1700,1700,1000,instancias/mejor-caso-bt/BT-MC-1700.txt
mejor-caso-bt,BT-MC-1710,1710,1000,instancias/mejor-caso-bt/BT-MC-1710.txt
mejor-caso-bt,BT-MC-1720,1720,1000,instancias/mejor-caso-bt/BT-MC-1720.txt
mejor-caso-bt,BT-MC-1730,1730,1000,instancias/mejor-caso-bt/BT-MC-1730.txt
mejor-caso-bt,BT-MC-1740,1740,1000,instancias/mejor-caso-bt/BT-MC-1740.txt
mejor-caso-bt,BT-MC-1750,1750,1000,instancias/mejor-caso-bt/BT-MC-1750.txt
mejor-caso-bt,BT-MC-1760,1760,1000,instancias/mejor-caso-bt/BT-MC-1760.txt
mejor-caso-bt,BT-MC-1770,1770,1000,instancias/mejor-caso-bt/BT-MC-1770.txt
mejor-caso-bt,BT-MC-1780,1780,1000,instancias/mejor-caso-bt/BT-MC-1780.txt
mejor-caso-bt,BT-MC-1790,1790,1000,instancias/mejor-caso-bt/BT-MC-1790.txt
mejor-caso-bt,BT-MC-1800,1800,1000,instancias/mejor-caso-bt/BT-MC-1800.txt
mejor-caso-bt,BT-MC-1810,1810,1000,instancias/mejor-caso-bt/BT-MC-1810.txt
mejor-caso-bt,BT-MC-1820,1820,1000,instancias/mejor-caso-bt/BT-MC-1820.txt
mejor-caso-bt,BT-MC-1830,1830,1000,instancias/mejor-caso-bt/BT-MC-1830.txt
mejor-caso-bt,BT-MC-1840,1840,1000,instancias/mejor-caso-bt/BT-MC-1840.txt
mejor-caso-bt,BT-MC-1850,1850,1000,instancias/mejor-caso-bt/BT-MC-1850.txt
mejor-caso-bt,BT-MC-1860,1860,1000,instancias/mejor-caso-bt/BT-MC-1860.txt
mejor-caso-bt,BT-MC-1870,1870,1000,instancias/mejor-caso-bt/BT-MC-1870.txt
mejor-caso-bt,BT-MC-1880,1880,1000,instancias/mejor-caso-bt/BT-MC-1880.txt
mejor-caso-bt,BT-MC-1890,1890,1000,instancias/mejor-caso-bt/BT-MC-1890.txt
mejor-caso-bt,BT-MC-1900,1900,1000,instancias/mejor-caso-bt/BT-MC-1900.txt
mejor-caso-bt,BT-MC-1910,1910,1000,instancias/mejor-caso-bt/BT-MC-1910.txt
mejor-caso-bt,BT-MC-1920,1920,1000,instancias/mejor-caso-bt/BT-MC-1920.txt
mejor-caso-bt,BT-MC-1930,1930,1000,instancias/mejor-caso-bt/BT-MC-1930.txt
mejor-caso-bt,BT-MC-1940,1940,1000,instancias/mejor-caso-bt/BT-MC-1940.txt
mejor-caso-bt,BT-MC-1950,1950,1000,instancias/mejor-caso-bt/BT-MC-1950.txt
mejor-caso-bt,BT-MC-1960,1960,1000,instancias/mejor-caso-bt/BT-MC-1960.txt
mejor-caso-bt,BT-MC-1970,1970,1000,instancias/mejor-caso-bt/BT-MC-1970.txt
mejor-caso-bt,BT-MC-1980,1980,1000,instancias/mejor-caso-bt/BT-MC-1980.txt
mejor-caso-bt,BT-MC-1990,1990,1000,instancias/mejor-caso-bt/BT-MC-1990.txt
mejor-caso-bt,BT-MC-2000,2000,1000,instancias/mejor-caso-bt/BT-MC-2000.txt
mejor-caso-bt,BT-MC-2010,2010,1000,instancias/mejor-caso-bt/BT-MC-2010.txt
mejor-caso-bt,BT-MC-2020,2020,1000,instancias/mejor-caso-bt/BT-MC-2020.txt
mejor-caso-bt,BT-MC-2030,2030,1000,instancias/mejor-caso-bt/BT-MC-2030.txt
mejor-caso-bt,BT-MC-2040,2040,1000,instancias/mejor-caso-bt/BT-MC-2040.txt
mejor-caso-bt,BT-MC-2050,2050,1000,instancias/mejor-caso-bt/BT-MC-2050.txt
mejor-caso-bt,BT-MC-2060,2060,1000,instancias/mejor-caso-bt/BT-MC-2060.txt
mejor-caso-bt,BT-MC-2070,2070,1000,instancias/mejor-caso-bt/BT-MC-2070.txt
mejor-caso-bt,BT-MC-2080,2080,1000,instancias/mejor-caso-bt/BT-MC-2080.txt
mejor-caso-bt,BT-MC-2090,2090,1000,instancias/mejor-caso-bt/BT-MC-2090.txt
mejor-caso-bt,BT-MC-2100,2100,1000,instancias/mejor-caso-bt/BT-MC-2100.txt
mejor-caso-bt,BT-MC-2110,2110,1000,instancias/mejor-caso-bt/BT-MC-2110.txt
mejor-caso-bt,BT-MC-2120,2120,1000,instancias/mejor-caso-bt/BT-MC-2120.txt
mejor-caso-bt,BT-MC-2130,2130,1000,instancias/mejor-caso-bt/BT-MC-2130.txt
mejor-caso-bt,BT-MC-2140,2140,1000,instancias/mejor-caso-bt/BT-MC-2140.txt
mejor-caso-bt,BT-MC-2150,2150,1000,instancias/mejor-caso-bt/BT-MC-2150.txt
mejor-caso-bt,BT-MC-2160,2160,1000,instancias/mejor-caso-bt/BT-MC-2160.txt
mejor-caso-bt,BT-MC-2170,2170,1000,instancias/mejor-caso-bt/BT-MC-2170.txt
mejor-caso-bt,BT-MC-2180,2180,1000,instancias/mejor-caso-bt/BT-MC-2180.txt
mejor-caso-bt,BT-MC-2190,2190,1000,instancias/mejor-caso-bt/BT-MC-2190.txt
mejor-caso-bt,BT-MC-2200,2200,1000,instancias/mejor-caso-bt/BT-MC-2200.txt
mejor-caso-bt,BT-MC-2210,2210,1000,instancias/mejor-caso-bt/BT-MC-2210.txt
mejor-caso-bt,BT-MC-2220,2220,1000,instancias/mejor-caso-bt/BT-MC-2220.txt
mejor-caso-bt,BT-MC-2230,2230,1000,instancias/mejor-caso-bt/BT-MC-2230.txt
mejor-caso-bt,BT-MC-2240,2240,1000,instancias/mejor-caso-bt/BT-MC-2240.txt
mejor-caso-bt,BT-MC-2250,2250,1000,instancias/mejor-caso-bt/BT-MC-2250.txt
mejor-caso-bt,BT-MC-2260,2260,1000,instancias/mejor-caso-bt/BT-MC-2260.txt
mejor-caso-bt,BT-MC-2270,2270,1000,instancias/mejor-caso-bt/BT-MC-2270.txt
mejor-caso-bt,BT-MC-2280,2280,1000,instancias/mejor-caso-bt/BT-MC-2280.txt
mejor-caso-bt,BT-MC-2290,2290,1000,instancias/mejor-caso-bt/BT-MC-2290.txt
mejor-caso-bt,BT-MC-2300,2300,1000,instancias/mejor-caso-bt/BT-MC-2300.txt
mejor-caso-bt,BT-MC-2310,2310,1000,instancias/mejor-caso-bt/BT-MC-2310.txt
mejor-caso-bt,BT-MC-2320,2320,1000,instancias/mejor-caso-bt/BT-MC-2320.txt
mejor-caso-bt,BT-MC-2330,2330,1000,instancias/mejor-caso-bt/BT-MC-2330.txt
mejor-caso-bt,BT-MC-2340,2340,1000,instancias/mejor-caso-bt/BT-MC-2340.txt
mejor-caso-bt,BT-MC-2350,2350,1000,instancias/mejor-caso-bt/BT-MC-2350.txt
mejor-caso-bt,BT-MC-2360,2360,1000,instancias/mejor-caso-bt/BT-MC-2360.txt
mejor-caso-bt,BT-MC-2370,2370,1000,instancias/mejor-caso-bt/BT-MC-2370.txt
mejor-caso-bt,BT-MC-2380,2380,1000,instancias/mejor-caso-bt/BT-MC-2380.txt
mejor-caso-bt,BT-MC-2390,2390,1000,instancias/mejor-caso-bt/BT-MC-2390.txt
mejor-caso-bt,BT-MC-2400,2400,1000,instancias/mejor-caso-bt/BT-MC-2400.txt
mejor-caso-bt,BT-MC-2410,2410,1000,instancias/mejor-caso-bt/BT-MC-2410.txt
mejor-caso-bt,BT-MC-2420,2420,1000,instancias/mejor-caso-bt/BT-MC-2420.txt
mejor-caso-bt,BT-MC-2430,2430,1000,instancias/mejor-caso-bt/BT-MC-2430.txt
mejor-caso-bt,BT-MC-2440,2440,1000,instancias/mejor-caso-bt/BT-MC-2440.txt
mejor-caso-bt,BT-MC-2450,2450,1000,instancias/mejor-caso-bt/BT-MC-2450.txt
mejor-caso-bt,BT-MC-2460,2460,1000,instancias/mejor-caso-bt/BT-MC-2460.txt
mejor-caso-bt,BT-MC-2470,2470,1000,instancias/mejor-caso-bt/BT-MC-2470.txt
mejor-caso-bt,BT-MC-2480,2480,1000,instancias/mejor-caso-bt/BT-MC-2480.txt
mejor-caso-bt,BT-MC-2490,2490,1000,instancias/mejor-caso-bt/BT-MC-2490.txt
mejor-caso-bt,BT-MC-2500,2500,1000,instancias/mejor-caso-bt/BT-MC-2500.txt
mejor-caso-bt,BT-MC-2510,2510,1000,instancias/mejor-caso-bt/BT-MC-2510.txt
mejor-caso-bt,BT-MC-2520,2520,1000,instancias/mejor-caso-bt/BT-MC-2520.txt
mejor-caso-bt,BT-MC-2530,2530,1000,instancias/mejor-caso-bt/BT-MC-2530.txt
mejor-caso-bt,BT-MC-2540,2540,1000,instancias/mejor-caso-bt/BT-MC-2540.txt
mejor-caso-bt,BT-MC-2550,2550,1000,instancias/mejor-caso-bt/BT-MC-2550.txt
mejor-caso-bt,BT-MC-2560,2560,1000,instancias/mejor-caso-bt/BT-MC-2560.txt
mejor-caso-bt,BT-MC-2570,2570,1000,instancias/mejor-caso-bt/BT-MC-2570.txt
mejor-caso-bt,BT-MC-2580,2580,1000,instancias/mejor-caso-bt/BT-MC-2580.txt
mejor-caso-bt,BT-MC-2590,2590,1000,instancias/mejor-caso-bt/BT-MC-2590.txt
mejor-caso-bt,BT-MC-2600,2600,1000,instancias/mejor-caso-bt/BT-MC-2600.txt
mejor-caso-bt,BT-MC-2610,2610,1000,instancias/mejor-caso-bt/BT-MC-2610.txt
mejor-caso-bt,BT-MC-2620,2620,1000,instancias/mejor-caso-bt/BT-MC-2620.txt
mejor-caso-bt,BT-MC-2630,2630,1000,instancias/mejor-caso-bt/BT-MC-2630.txt
mejor-caso-bt,BT-MC-2640,2640,1000,instancias/mejor-caso-bt/BT-MC-2640.txt
mejor-caso-bt,BT-MC-2650,2650,1000,instancias/mejor-caso-bt/BT-MC-2650.txt
mejor-caso-bt,BT-MC-2660,2660,1000,instancias/mejor-caso-bt/BT-MC-2660.txt
mejor-caso-bt,BT-MC-2670,2670,1000,instancias/mejor-caso-bt/BT-MC-2670.txt
mejor-caso-bt,BT-MC-2680,2680,1000,instancias/mejor-caso-bt/BT-MC-2680.txt
mejor-caso-bt,BT-MC-2690,2690,1000,instancias/mejor-caso-bt/BT-MC-2690.txt
mejor-caso-bt,BT-MC-2700,2700,1000,instancias/mejor-caso-bt/BT-MC-2700.txt
mejor-caso-bt,BT-MC-2710,2710,1000,instancias/mejor-caso-bt/BT-MC-2710.txt
mejor-caso-bt,BT-MC-2720,2720,1000,instancias/mejor-caso-bt/BT-MC-2720.txt
mejor-caso-bt,BT-MC-2730,2730,1000,instancias/mejor-caso-bt/BT-MC-2730.txt
mejor-caso-bt,BT-MC-2740,2740,1000,instancias/mejor-caso-bt/BT-MC-2740.txt
mejor-caso-bt,BT-MC-2750,2750,1000,instancias/mejor-caso-bt/BT-MC-2750.txt
mejor-caso-bt,BT-MC-2760,2760,1000,instancias/mejor-caso-bt/BT-MC-2760.txt
mejor-caso-bt,BT-MC-2770,2770,1000,instancias/mejor-caso-bt/BT-MC-2770.txt
mejor-caso-bt,BT-MC-2780,2780,1000,instancias/mejor-caso-bt/BT-MC-2780.txt
mejor-caso-bt,BT-MC-2790,2790,1000,instancias/mejor-caso-bt/BT-MC-2790.txt
mejor-caso-bt,BT-MC-2800,2800,1000,instancias/mejor-caso-bt/BT-MC-2800.txt
mejor-caso-bt,BT-MC-2810,2810,1000,instancias/mejor-caso-bt/BT-MC-2810.txt
mejor-caso-bt,BT-MC-2820,2820,1000,instancias/mejor-caso-bt/BT-MC-2820.txt
mejor-caso-bt,BT-MC-2830,2830,1000,instancias/mejor-caso-bt/BT-MC-2830.txt
mejor-caso-bt,BT-MC-2840,2840,1000,instancias/mejor-caso-bt/BT-MC-2840.txt
mejor-caso-bt,BT-MC-2850,2850,1000,instancias/mejor-caso-bt/BT-MC-2850.txt
mejor-caso-bt,BT-MC-2860,2860,1000,instancias/mejor-caso-bt/BT-MC-2860.txt
mejor-caso-bt,BT-MC-2870,2870,1000,instancias/mejor-caso-bt/BT-MC-2870.txt
mejor-caso-bt,BT-MC-2880,2880,1000,instancias/mejor-caso-bt/BT-MC-2880.txt
mejor-caso-bt,BT-MC-2890,2890,1000,instancias/mejor-caso-bt/BT-MC-2890.txt
mejor-caso-bt,BT-MC-2900,2900,1000,instancias/mejor-caso-bt/BT-MC-2900.txt
mejor-caso-bt,BT-MC-2910,2910,1000,instancias/mejor-caso-bt/BT-MC-2910.txt
mejor-caso-bt,BT-MC-2920,2920,1000,instancias/mejor-caso-bt/BT-MC-2920.txt
mejor-caso-bt,BT-MC-2930,2930,1000,instancias/mejor-caso-bt/BT-MC-2930.txt
mejor-caso-bt,BT-MC-2940,2940,1000,instancias/mejor-caso-bt/BT-MC-2940.txt
mejor-caso-bt,BT-MC-2950,2950,1000,instancias/mejor-caso-bt/BT-MC-2950.txt
mejor-caso-bt,BT-MC-2960,2960,1000,instancias/mejor-caso-bt/BT-MC-2960.txt
mejor-caso-bt,BT-MC-2970,2970,1000,instancias/mejor-caso-bt/BT-MC-2970.txt
mejor-caso-bt,BT-MC-2980,2980,1000,instancias/mejor-caso-bt/BT-MC-2980.txt
mejor-caso-bt,BT-MC-2990,2990,1000,instancias/mejor-caso-bt/BT-MC-2990.txt
mejor-caso-bt,BT-MC-3000,3000,1000,instancias/mejor-caso-bt/BT-MC-3000.txt
mejor-caso-bt,BT-MC-3010,3010,1000,instancias/mejor-caso-bt/BT-MC-3010.txt
mejor-caso-bt,BT-MC-3020,3020,1000,instancias/mejor-caso-bt/BT-MC-3020.txt
mejor-caso-bt,BT-MC-3030,3030,1000,instancias/mejor-caso-bt/BT-MC-3030.txt
mejor-caso-bt,BT-MC-3040,3040,1000,instancias/mejor-caso-bt/BT-MC-3040.txt
mejor-caso-bt,BT-MC-3050,3050,1000,instancias/mejor-caso-bt/BT-MC-3050.txt
mejor-caso-bt,BT-MC-3060,3060,1000,instancias/mejor-caso-bt/BT-MC-3060.txt
mejor-caso-bt,BT-MC-3070,3070,1000,instancias/mejor-caso-bt/BT-MC-3070.txt
mejor-caso-bt,BT-MC-3080,3080,1000,instancias/mejor-caso-bt/BT-MC-3080.txt
mejor-caso-bt,BT-MC-3090,3090,1000,instancias/mejor-caso-bt/BT-MC-3090.txt
mejor-caso-bt,BT-MC-3100,3100,1000,instancias/mejor-caso-bt/BT-MC-3100.txt
mejor-caso-bt,BT-MC-3110,3110,1000,instancias/mejor-caso-bt/BT-MC-3110.txt
mejor-caso-bt,BT-MC-3120,3120,1000,instancias/mejor-caso-bt/BT-MC-3120.txt
mejor-caso-bt,BT-MC-3130,3130,1000,instancias/mejor-caso-bt/BT-MC-3130.txt
mejor-caso-bt,BT-MC-3140,3140,1000,instancias/mejor-caso-bt/BT-MC-3140.txt
mejor-caso-bt,BT-MC-3150,3150,1000,instancias/mejor-caso-bt/BT-MC-3150.txt
mejor-caso-bt,BT-MC-3160,3160,1000,instancias/mejor-caso-bt/BT-MC-3160.txt
mejor-caso-bt,BT-MC-3170,3170,1000,instancias/mejor-caso-bt/BT-MC-3170.txt
mejor-caso-bt,BT-MC-3180,3180,1000,instancias/mejor-caso-bt/BT-MC-3180.txt
mejor-caso-bt,BT-MC-3190,3190,1000,instancias/mejor-caso-bt/BT-MC-3190.txt
mejor-caso-bt,BT-MC-3200,3200,1000,instancias/mejor-caso-bt/BT-MC-3200.txt
mejor-caso-bt,BT-MC-3210,3210,1000,instancias/mejor-caso-bt/BT-MC-3210.txt
mejor-caso-bt,BT-MC-3220,3220,1000,instancias/mejor-caso-bt/BT-MC-3220.txt
mejor-caso-bt,BT-MC-3230,3230,1000,instancias/mejor-caso-bt/BT-MC-3230.txt
mejor-caso-bt,BT-MC-3240,3240,1000,instancias/mejor-caso-bt/BT-MC-3240.txt
mejor-caso-bt,BT-MC-3250,3250,1000,instancias/mejor-caso-bt/BT-MC-3250.txt
mejor-caso-bt,BT-MC-3260,3260,1000,instancias/mejor-caso-bt/BT-MC-3260.txt
mejor-caso-bt,BT-MC-3270,3270,1000,instancias/mejor-caso-bt/BT-MC-3270.txt
mejor-caso-bt,BT-MC-3280,3280,1000,instancias/mejor-caso-bt/BT-MC-3280.txt
mejor-caso-bt,BT-MC-3290,3290,1000,instancias/mejor-caso-bt/BT-MC-3290.txt
mejor-caso-bt,BT-MC-3300,3300,1000,instancias/mejor-caso-bt/BT-MC-3300.txt
mejor-caso-bt,BT-MC-3310,3310,1000,instancias/mejor-caso-bt/BT-MC-3310.txt
mejor-caso-bt,BT-MC-3320,3320,1000,instancias/mejor-caso-bt/BT-MC-3320.txt
mejor-caso-bt,BT-MC-3330,3330,1000,instancias/mejor-caso-bt/BT-MC-3330.txt
mejor-caso-bt,BT-MC-3340,3340,1000,instancias/mejor-caso-bt/BT-MC-3340.txt
mejor-caso-bt,BT-MC-3350,3350,1000,instancias/mejor-caso-bt/BT-MC-3350.txt
mejor-caso-bt,BT-MC-3360,3360,1000,instancias/mejor-caso-bt/BT-MC-3360.txt
mejor-caso-bt,BT-MC-3370,3370,1000,instancias/mejor-caso-bt/BT-MC-3370.txt
mejor-caso-bt,BT-MC-3380,3380,1000,instancias/mejor-caso-bt/BT-MC-3380.txt
mejor-caso-bt,BT-MC-3390,3390,1000,instancias/mejor-caso-bt/BT-MC-3390.txt
mejor-caso-bt,BT-MC-3400,3400,1000,instancias/mejor-caso-bt/BT-MC-3400.txt
mejor-caso-bt,BT-MC-3410,3410,1000,instancias/mejor-caso-bt/BT-MC-3410.txt
mejor-caso-bt,BT-MC-3420,3420,1000,instancias/mejor-caso-bt/BT-MC-3420.txt
mejor-caso-bt,BT-MC-3430,3430,1000,instancias/mejor-caso-bt/BT-MC-3430.txt
mejor-caso-bt,BT-MC-3440,3440,1000,instancias/mejor-caso-bt/BT-MC-3440.txt
mejor-caso-bt,BT-MC-3450,3450,1000,instancias/mejor-caso-bt/BT-MC-3450.txt
mejor-caso-bt,BT-MC-3460,3460,1000,instancias/mejor-caso-bt/BT-MC-3460.txt
mejor-caso-bt,BT-MC-3470,3470,1000,instancias/mejor-caso-bt/BT-MC-3470.txt
mejor-caso-bt,BT-MC-3480,3480,1000,instancias/mejor-caso-bt/BT-MC-3480.txt
mejor-caso-bt,BT-MC-3490,3490,1000,instancias/mejor-caso-bt/BT-MC-3490.txt
mejor-caso-bt,BT-MC-3500,3500,1000,instancias/mejor-caso-bt/BT-MC-3500.txt
mejor-caso-bt,BT-MC-3510,3510,1000,instancias/mejor-caso-bt/BT-MC-3510.txt
mejor-caso-bt,BT-MC-3520,3520,1000,instancias/mejor-caso-bt/BT-MC-3520.txt
mejor-caso-bt,BT-MC-3530,3530,1000,instancias/mejor-caso-bt/BT-MC-3530.txt
mejor-caso-bt,BT-MC-3540,3540,1000,instancias/mejor-caso-bt/BT-MC-3540.txt
mejor-caso-bt,BT-MC-3550,3550,1000,instancias/mejor-caso-bt/BT-MC-3550.txt
mejor-caso-bt,BT-MC-3560,3560,1000,instancias/mejor-caso-bt/BT-MC-3560.txt
mejor-caso-bt,BT-MC-3570,3570,1000,instancias/mejor-caso-bt/BT-MC-3570.txt
mejor-caso-bt,BT-MC-3580,3580,1000,instancias/mejor-caso-bt/BT-MC-3580.txt
mejor-caso-bt,BT-MC-3590,3590,1000,instancias/mejor-caso-bt/BT-MC-3590.txt
mejor-caso-bt,BT-MC-3600,3600,1000,instancias/mejor-caso-bt/BT-MC-3600.txt
mejor-caso-bt,BT-MC-3610,3610,1000,instancias/mejor-caso-bt/BT-MC-3610.txt
mejor-caso-bt,BT-MC-3620,3620,1000,instancias/mejor-caso-bt/BT-MC-3620.txt
mejor-caso-bt,BT-MC-3630,3630,1000,instancias/mejor-caso-bt/BT-MC-3630.txt
mejor-caso-bt,BT-MC-3640,3640,1000,instancias/mejor-caso-bt/BT-MC-3640.txt
mejor-caso-bt,BT-MC-3650,3650,1000,instancias/mejor-caso-bt/BT-MC-3650.txt
mejor-caso-bt,BT-MC-3660,3660,1000,instancias/mejor-caso-bt/BT-MC-3660.txt
mejor-caso-bt,BT-MC-3670,3670,1000,instancias/mejor-caso-bt/BT-MC-3670.txt
mejor-caso-bt,BT-MC-3680,3680,1000,instancias/mejor-caso-bt/BT-MC-3680.txt
mejor-caso-bt,BT-MC-3690,3690,1000,instancias/mejor-caso-bt/BT-MC-3690.txt
mejor-caso-bt,BT-MC-3700,3700,1000,instancias/mejor-caso-bt/BT-MC-3700.txt
mejor-caso-bt,BT-MC-3710,3710,1000,instancias/mejor-caso-bt/BT-MC-3710.txt
mejor-caso-bt,BT-MC-3720,3720,1000,instancias/mejor-caso-bt/BT-MC-3720.txt
mejor-caso-bt,BT-MC-3730,3730,1000,instancias/mejor-caso-bt/BT-MC-3730.txt
mejor-caso-bt,BT-MC-3740,3740,1000,instancias/mejor-caso-bt/BT-MC-3740.txt
mejor-caso-bt,BT-MC-3750,3750,1000,instancias/mejor-caso-bt/BT-MC-3750.txt
mejor-caso-bt,BT-MC-3760,3760,1000,instancias/mejor-caso-bt/BT-MC-3760.txt
mejor-caso-bt,BT-MC-3770,3770,1000,instancias/mejor-caso-bt/BT-MC-3770.txt
mejor-caso-bt,BT-MC-3780,3780,1000,instancias/mejor-caso-bt/BT-MC-3780.txt
mejor-caso-bt,BT-MC-3790,3790,1000,instancias/mejor-caso-bt/BT-MC-3790.txt
mejor-caso-bt,BT-MC-3800,3800,1000,instancias/mejor-caso-bt/BT-MC-3800.txt
mejor-caso-bt,BT-MC-3810,3810,1000,instancias/mejor-caso-bt/BT-MC-3810.txt
mejor-caso-bt,BT-MC-3820,3820,1000,instancias/mejor-caso-bt/BT-MC-3820.txt
mejor-caso-bt,BT-MC-3830,3830,1000,instancias/mejor-caso-bt/BT-MC-3830.txt
mejor-caso-bt,BT-MC-3840,3840,1000,instancias/mejor-caso-bt/BT-MC-3840.txt
mejor-caso-bt,BT-MC-3850,3850,1000,instancias/mejor-caso-bt/BT-MC-3850.txt
mejor-caso-bt,BT-MC-3860,3860,1000,instancias/mejor-caso-bt/BT-MC-3860.txt
mejor-caso-bt,BT-MC-3870,3870,1000,instancias/mejor-caso-bt/BT-MC-3870.txt
mejor-caso-bt,BT-MC-3880,3880,1000,instancias/mejor-caso-bt/BT-MC-3880.txt
mejor-caso-bt,BT-MC-3890,3890,1000,instancias/mejor-caso-bt/BT-MC-3890.txt
mejor-caso-bt,BT-MC-3900,3900,1000,instancias/mejor-caso-bt/BT-MC-3900.txt
mejor-caso-bt,BT-MC-3910,3910,1000,instancias/mejor-caso-bt/BT-MC-3910.txt
mejor-caso-bt,BT-MC-3920,3920,1000,instancias/mejor-caso-bt/BT-MC-3920.txt
mejor-caso-bt,BT-MC-3930,3930,1000,instancias/mejor-caso-bt/BT-MC-3930.txt
mejor-caso-bt,BT-MC-3940,3940,1000,instancias/mejor-caso-bt/BT-MC-3940.txt
mejor-caso-bt,BT-MC-3950,3950,1000,instancias/mejor-caso-bt/BT-MC-3950.txt
mejor-caso-bt,BT-MC-3960,3960,1000,instancias/mejor-caso-bt/BT-MC-3960.txt
mejor-caso-bt,BT-MC-3970,3970,1000,instancias/mejor-caso-bt/BT-MC-3970.txt
mejor-caso-bt,BT-MC-3980,3980,1000,instancias/mejor-caso-bt/BT-MC-3980.txt
mejor-caso-bt,BT-MC-3990,3990,1000,instancias/mejor-caso-bt/BT-MC-3990.txt
mejor-caso-bt,BT-MC-4000,4000,1000,instancias/mejor-caso-bt/BT-MC-4000.txt
mejor-caso-bt,BT-MC-4010,4010,1000,instancias/mejor-caso-bt/BT-MC-4010.txt
mejor-caso-bt,BT-MC-4020,4020,1000,instancias/mejor-caso-bt/BT-MC-4020.txt
mejor-caso-bt,BT-MC-4030,4030,1000,instancias/mejor-caso-bt/BT-MC-4030.txt
mejor-caso-bt,BT-MC-4040,4040,1000,instancias/mejor-caso-bt/BT-MC-4040.txt
mejor-caso-bt,BT-MC-4050,4050,1000,instancias/mejor-caso-bt/BT-MC-4050.txt
mejor-caso-bt,BT-MC-4060,4060,1000,instancias/mejor-caso-bt/BT-MC-4060.txt
mejor-caso-bt,BT-MC-4070,4070,1000,instancias/mejor-caso-bt/BT-MC-4070.txt
mejor-caso-bt,BT-MC-4080,4080,1000,instancias/mejor-caso-bt/BT-MC-4080.txt
mejor-caso-bt,BT-MC-4090,4090,1000,instancias/mejor-caso-bt/BT-MC-4090.txt
mejor-caso-bt,BT-MC-4100,4100,1000,instancias/mejor-caso-bt/BT-MC-4100.txt
mejor-caso-bt,BT-MC-4110,4110,1000,instancias/mejor-caso-bt/BT-MC-4110.txt
mejor-caso-bt,BT-MC-4120,4120,1000,instancias/mejor-caso-bt/BT-MC-4120.txt
mejor-caso-bt,BT-MC-4130,4130,1000,instancias/mejor-caso-bt/BT-MC-4130.txt
mejor-caso-bt,BT-MC-4140,4140,1000,instancias/mejor-caso-bt/BT-MC-4140.txt
mejor-caso-bt,BT-MC-4150,4150,1000,instancias/mejor-caso-bt/BT-MC-4150.txt
mejor-caso-bt,BT-MC-4160,4160,1000,instancias/mejor-caso-bt/BT-MC-4160.txt
mejor-caso-bt,BT-MC-4170,4170,1000,instancias/mejor-caso-bt/BT-MC-4170.txt
mejor-caso-bt,BT-MC-4180,4180,1000,instancias/mejor-caso-bt/BT-MC-4180.txt
mejor-caso-bt,BT-MC-4190,4190,1000,instancias/mejor-caso-bt/BT-MC-4190.txt
mejor-caso-bt,BT-MC-4200,4200,1000,instancias/mejor-caso-bt/BT-MC-4200.txt
mejor-caso-bt,BT-MC-4210,4210,1000,instancias/mejor-caso-bt/BT-MC-4210.txt
mejor-caso-bt,BT-MC-4220,4220,1000,instancias/mejor-caso-bt/BT-MC-4220.txt
mejor-caso-bt,BT-MC-4230,4230,1000,instancias/mejor-caso-bt/BT-MC-4230.txt
mejor-caso-bt,BT-MC-4240,4240,1000,instancias/mejor-caso-bt/BT-MC-4240.txt
mejor-caso-bt,BT-MC-4250,4250,1000,instancias/mejor-caso-bt/BT-MC-4250.txt
mejor-caso-bt,BT-MC-4260,4260,1000,instancias/mejor-caso-bt/BT-MC-4260.txt
mejor-caso-bt,BT-MC-4270,4270,1000,instancias/mejor-caso-bt/BT-MC-4270.txt
mejor-caso-bt,BT-MC-4280,4280,1000,instancias/mejor-caso-bt/BT-MC-4280.txt
mejor-caso-bt,BT-MC-4290,4290,1000,instancias/mejor-caso-bt/BT-MC-4290.txt
mejor-caso-bt,BT-MC-4300,4300,1000,instancias/mejor-caso-bt/BT-MC-4300.txt
mejor-caso-bt,BT-MC-4310,4310,1000,instancias/mejor-caso-bt/BT-MC-4310.txt
mejor-caso-bt,BT-MC-4320,4320,1000,instancias/mejor-caso-bt/BT-MC-4320.txt
mejor-caso-bt,BT-MC-4330,4330,1000,instancias/mejor-caso-bt/BT-MC-4330.txt
mejor-caso-bt,BT-MC-4340,4340,1000,instancias/mejor-caso-bt/BT-MC-4340.txt
mejor-caso-bt,BT-MC-4350,4350,1000,instancias/mejor-caso-bt/BT-MC-4350.txt
mejor-caso-bt,BT-MC-4360,4360,1000,instancias/mejor-caso-bt/BT-MC-4360.txt
mejor-caso-bt,BT-MC-4370,4370,1000,instancias/mejor-caso-bt/BT-MC-4370.txt
mejor-caso-bt,BT-MC-4380,4380,1000,instancias/mejor-caso-bt/BT-MC-4380.txt
mejor-caso-bt,BT-MC-4390,4390,1000,instancias/mejor-caso-bt/BT-MC-4390.txt
mejor-caso-bt,BT-MC-4400,4400,1000,instancias/mejor-caso-bt/BT-MC-4400.txt
mejor-caso-bt,BT-MC-4410,4410,1000,instancias/mejor-caso-bt/BT-MC-4410.txt
mejor-caso-bt,BT-MC-4420,4420,1000,instancias/mejor-caso-bt/BT-MC-4420.txt
mejor-caso-bt,BT-MC-4430,4430,1000,instancias/mejor-caso-bt/BT-MC-4430.txt
mejor-caso-bt,BT-MC-4440,4440,1000,instancias/mejor-caso-bt/BT-MC-4440.txt
mejor-caso-bt,BT-MC-4450,4450,1000,instancias/mejor-caso-bt/BT-MC-4450.txt
mejor-caso-bt,BT-MC-4460,4460,1000,instancias/mejor-caso-bt/BT-MC-4460.txt
mejor-caso-bt,BT-MC-4470,4470,1000,instancias/mejor-caso-bt/BT-MC-4470.txt
mejor-caso-bt,BT-MC-4480,4480,1000,instancias/mejor-caso-bt/BT-MC-4480.txt
mejor-caso-bt,BT-MC-4490,4490,1000,instancias/mejor-caso-bt/BT-MC-4490.txt
mejor-caso-bt,BT-MC-4500,4500,1000,instancias/mejor-caso-bt/BT-MC-4500.txt
mejor-caso-bt,BT-MC-4510,4510,1000,instancias/mejor-caso-bt/BT-MC-4510.txt
mejor-caso-bt,BT-MC-4520,4520,1000,instancias/mejor-caso-bt/BT-MC-4520.txt
mejor-caso-bt,BT-MC-4530,4530,1000,instancias/mejor-caso-bt/BT-MC-4530.txt
mejor-caso-bt,BT-MC-4540,4540,1000,instancias/mejor-caso-bt/BT-MC-4540.txt
mejor-caso-bt,BT-MC-4550,4550,1000,instancias/mejor-caso-bt/BT-MC-4550.txt
mejor-caso-bt,BT-MC-4560,4560,1000,instancias/mejor-caso-bt/BT-MC-4560.txt
mejor-caso-bt,BT-MC-4570,4570,1000,instancias/mejor-caso-bt/BT-MC-4570.txt
mejor-caso-bt,BT-MC-4580,4580,1000,instancias/mejor-caso-bt/BT-MC-4580.txt
mejor-caso-bt,BT-MC-4590,4590,1000,instancias/mejor-caso-bt/BT-MC-4590.txt
mejor-caso-bt,BT-MC-4600,4600,1000,instancias/mejor-caso-bt/BT-MC-4600.txt
mejor-caso-bt,BT-MC-4610,4610,1000,instancias/mejor-caso-bt/BT-MC-4610.txt
mejor-caso-bt,BT-MC-4620,4620,1000,instancias/mejor-caso-bt/BT-MC-4620.txt
mejor-caso-bt,BT-MC-4630,4630,1000,instancias/mejor-caso-bt/BT-MC-4630.txt
mejor-caso-bt,BT-MC-4640,4640,1000,instancias/mejor-caso-bt/BT-MC-4640.txt
mejor-caso-bt,BT-MC-4650,4650,1000,instancias/mejor-caso-bt/BT-MC-4650.txt
mejor-caso-bt,BT-MC-4660,4660,1000,instancias/mejor-caso-bt/BT-MC-4660.txt
mejor-caso-bt,BT-MC-4670,4670,1000,instancias/mejor-caso-bt/BT-MC-4670.txt
mejor-caso-bt,BT-MC-4680,4680,1000,instancias/mejor-caso-bt/BT-MC-4680.txt
mejor-caso-bt,BT-MC-4690,4690,1000,instancias/mejor-caso-bt/BT-MC-4690.txt
mejor-caso-bt,BT-MC-4700,4700,1000,instancias/mejor-caso-bt/BT-MC-4700.txt
mejor-caso-bt,BT-MC-4710,4710,1000,instancias/mejor-caso-bt/BT-MC-4710.txt
mejor-caso-bt,BT-MC-4720,4720,1000,instancias/mejor-caso-bt/BT-MC-4720.txt
mejor-caso-bt,BT-MC-4730,4730,1000,instancias/mejor-caso-bt/BT-MC-4730.txt
mejor-caso-bt,BT-MC-4740,4740,1000,instancias/mejor-caso-bt/BT-MC-4740.txt
mejor-caso-bt,BT-MC-4750,4750,1000,instancias/mejor-caso-bt/BT-MC-4750.txt
mejor-caso-bt,BT-MC-4760,4760,1000,instancias/mejor-caso-bt/BT-MC-4760.txt
mejor-caso-bt,BT-MC-4770,4770,1000,instancias/mejor-caso-bt/BT-MC-4770.txt
mejor-caso-bt,BT-MC-4780,4780,1000,instancias/mejor-caso-bt/BT-MC-4780.txt
mejor-caso-bt,BT-MC-4790,4790,1000,instancias/mejor-caso-bt/BT-MC-4790.txt
mejor-caso-bt,BT-MC-4800,4800,1000,instancias/mejor-caso-bt/BT-MC-4800.txt
mejor-caso-bt,BT-MC-4810,4810,1000,instancias/mejor-caso-bt/BT-MC-4810.txt
mejor-caso-bt,BT-MC-4820,4820,1000,instancias/mejor-caso-bt/BT-MC-4820.txt
mejor-caso-bt,BT-MC-4830,4830,1000,instancias/mejor-caso-bt/BT-MC-4830.txt
mejor-caso-bt,BT-MC-4840,4840,1000,instancias/mejor-caso-bt/BT-MC-4840.txt
mejor-caso-bt,BT-MC-4850,4850,1000,instancias/mejor-caso-bt/BT-MC-4850.txt
mejor-caso-bt,BT-MC-4860,4860,1000,instancias/mejor-caso-bt/BT-MC-4860.txt
mejor-caso-bt,BT-MC-4870,4870,1000,instancias/mejor-caso-bt/BT-MC-4870.txt
mejor-caso-bt,BT-MC-4880,4880,1000,instancias/mejor-caso-bt/BT-MC-4880.txt
mejor-caso-bt,BT-MC-4890,4890,1000,instancias/mejor-caso-bt/BT-MC-4890.txt
mejor-caso-bt,BT-MC-4900,4900,1000,instancias/mejor-caso-bt/BT-MC-4900.txt
mejor-caso-bt,BT-MC-4910,4910,1000,instancias/mejor-caso-bt/BT-MC-4910.txt
mejor-caso-bt,BT-MC-4920,4920,1000,instancias/mejor-caso-bt/BT-MC-4920.txt
mejor-caso-bt,BT-MC-4930,4930,1000,instancias/mejor-caso-bt/BT-MC-4930.txt
mejor-caso-bt,BT-MC-4940,4940,1000,instancias/mejor-caso-bt/BT-MC-4940.txt
mejor-caso-bt,BT-MC-4950,4950,1000,instancias/mejor-caso-bt/BT-MC-4950.txt
mejor-caso-bt,BT-MC-4960,4960,1000,instancias/mejor-caso-bt/BT-MC-4960.txt
mejor-caso-bt,BT-MC-4970,4970,1000,instancias/mejor-caso-bt/BT-MC-4970.txt
mejor-caso-bt,BT-MC-4980,4980,1000,instancias/mejor-caso-bt/BT-MC-4980.txt
mejor-caso-bt,BT-MC-4990,4990,1000,instancias/mejor-caso-bt/BT-MC-4990.txt
mejor-caso-bt,BT-MC-5000,5000,1000,instancias/mejor-caso-bt/BT-MC-5000.txt
mejor-caso-bt,BT-MC-5010,5010,1000,instancias/mejor-caso-bt/BT-MC-5010.txt
mejor-caso-bt,BT-MC-5020,5020,1000,instancias/mejor-caso-bt/BT-MC-5020.txt
mejor-caso-bt,BT-MC-5030,5030,1000,instancias/mejor-caso-bt/BT-MC-5030.txt
mejor-caso-bt,BT-MC-5040,5040,1000,instancias/mejor-caso-bt/BT-MC-5040.txt
mejor-caso-bt,BT-MC-5050,5050,1000,instancias/mejor-caso-bt/BT-MC-5050.txt
mejor-caso-bt,BT-MC-5060,5060,1000,instancias/mejor-caso-bt/BT-MC-5060.txt
mejor-caso-bt,BT-MC-5070,5070,1000,instancias/mejor-caso-bt/BT-MC-5070.txt
mejor-caso-bt,BT-MC-5080,5080,1000,instancias/mejor-caso-bt/BT-MC-5080.txt
mejor-caso-bt,BT-MC-5090,5090,1000,instancias/mejor-caso-bt/BT-MC-5090.txt
mejor-caso-bt,BT-MC-5100,5100,1000,instancias/mejor-caso-bt/BT-MC-5100.txt
mejor-caso-bt,BT-MC-5110,5110,1000,instancias/mejor-caso-bt/BT-MC-5110.txt
mejor-caso-bt,BT-MC-5120,5120,1000,instancias/mejor-caso-bt/BT-MC-5120.txt
mejor-caso-bt,BT-MC-5130,5130,1000,instancias/mejor-caso-bt/BT-MC-5130.txt
mejor-caso-bt,BT-MC-5140,5140,1000,instancias/mejor-caso-bt/BT-MC-5140.txt
mejor-caso-bt,BT-MC-5150,5150,1000,instancias/mejor-caso-bt/BT-MC-5150.txt
mejor-caso-bt,BT-MC-5160,5160,1000,instancias/mejor-caso-bt/BT-MC-5160.txt
mejor-caso-bt,BT-MC-5170,5170,1000,instancias/mejor-caso-bt/BT-MC-5170.txt
mejor-caso-bt,BT-MC-5180,5180,1000,instancias/mejor-caso-bt/BT-MC-5180.txt
mejor-caso-bt,BT-MC-5190,5190,1000,instancias/mejor-caso-bt/BT-MC-5190.txt
mejor-caso-bt,BT-MC-5200,5200,1000,instancias/mejor-caso-bt/BT-MC-5200.txt
mejor-caso-bt,BT-MC-5210,5210,1000,instancias/mejor-caso-bt/BT-MC-5210.txt
mejor-caso-bt,BT-MC-5220,5220,1000,instancias/mejor-caso-bt/BT-MC-5220.txt
mejor-caso-bt,BT-MC-5230,5230,1000,instancias/mejor-caso-bt/BT-MC-5230.txt
mejor-caso-bt,BT-MC-5240,5240,1000,instancias/mejor-caso-bt/BT-MC-5240.txt
mejor-caso-bt,BT-MC-5250,5250,1000,instancias/mejor-caso-bt/BT-MC-5250.txt
mejor-caso-bt,BT-MC-5260,5260,1000,instancias/mejor-caso-bt/BT-MC-5260.txt
mejor-caso-bt,BT-MC-5270,5270,1000,instancias/mejor-caso-bt/BT-MC-5270.txt
mejor-caso-bt,BT-MC-5280,5280,1000,instancias/mejor-caso-bt/BT-MC-5280.txt
mejor-caso-bt,BT-MC-5290,5290,1000,instancias/mejor-caso-bt/BT-MC-5290.txt
mejor-caso-bt,BT-MC-5300,5300,1000,instancias/mejor-caso-bt/BT-MC-5300.txt
mejor-caso-bt,BT-MC-5310,5310,1000,instancias/mejor-caso-bt/BT-MC-5310.txt
mejor-caso-bt,BT-MC-5320,5320,1000,instancias/mejor-caso-bt/BT-MC-5320.txt
mejor-caso-bt,BT-MC-5330,5330,1000,instancias/mejor-caso-bt/BT-MC-5330.txt
mejor-caso-bt,BT-MC-5340,5340,1000,instancias/mejor-caso-bt/BT-MC-5340.txt
mejor-caso-bt,BT-MC-5350,5350,1000,instancias/mejor-caso-bt/BT-MC-5350.txt
mejor-caso-bt,BT-MC-5360,5360,1000,instancias/mejor-caso-bt/BT-MC-5360.txt
mejor-caso-bt,BT-MC-5370,5370,1000,instancias/mejor-caso-bt/BT-MC-5370.txt
mejor-caso-bt,BT-MC-5380,5380,1000,instancias/mejor-caso-bt/BT-MC-5380.txt
mejor-caso-bt,BT-MC-5390,5390,1000,instancias/mejor-caso-bt/BT-MC-5390.txt
mejor-caso-bt,BT-MC-5400,5400,1000,instancias/mejor-caso-bt/BT-MC-5400.txt
mejor-caso-bt,BT-MC-5410,5410,1000,instancias/mejor-caso-bt/BT-MC-5410.txt
mejor-caso-bt,BT-MC-5420,5420,1000,instancias/mejor-caso-bt/BT-MC-5420.txt
mejor-caso-bt,BT-MC-5430,5430,1000,instancias/mejor-caso-bt/BT-MC-5430.txt
mejor-caso-bt,BT-MC-5440,5440,1000,instancias/mejor-caso-bt/BT-MC-5440.txt
mejor-caso-bt,BT-MC-5450,5450,1000,instancias/mejor-caso-bt/BT-MC-5450.txt
mejor-caso-bt,BT-MC-5460,5460,1000,instancias/mejor-caso-bt/BT-MC-5460.txt
mejor-caso-bt,BT-MC-5470,5470,1000,instancias/mejor-caso-bt/BT-MC-5470.txt
mejor-caso-bt,BT-MC-5480,5480,1000,instancias/mejor-caso-bt/BT-MC-5480.txt
mejor-caso-bt,BT-MC-5490,5490,1000,instancias/mejor-caso-bt/BT-MC-5490.txt
mejor-caso-bt,BT-MC-5500,5500,1000,instancias/mejor-caso-bt/BT-MC-5500.txt
mejor-caso-bt,BT-MC-5510,5510,1000,instancias/mejor-caso-bt/BT-MC-5510.txt
mejor-caso-bt,BT-MC-5520,5520,1000,instancias/mejor-caso-bt/BT-MC-5520.txt
mejor-caso-bt,BT-MC-5530,5530,1000,instancias/mejor-caso-bt/BT-MC-5530.txt
mejor-caso-bt,BT-MC-5540,5540,1000,instancias/mejor-caso-bt/BT-MC-5540.txt
mejor-caso-bt,BT-MC-5550,5550,1000,instancias/mejor-caso-bt/BT-MC-5550.txt
mejor-caso-bt,BT-MC-5560,5560,1000,instancias/mejor-caso-bt/BT-MC-5560.txt
mejor-caso-bt,BT-MC-5570,5570,1000,instancias/mejor-caso-bt/BT-MC-5570.txt
mejor-caso-bt,BT-MC-5580,5580,1000,instancias/mejor-caso-bt/BT-MC-5580.txt
mejor-caso-bt,BT-MC-5590,5590,1000,instancias/mejor-caso-bt/BT-MC-5590.txt
mejor-caso-bt,BT-MC-5600,5600,1000,instancias/mejor-caso-bt/BT-MC-5600.txt
mejor-caso-bt,BT-MC-5610,5610,1000,instancias/mejor-caso-bt/BT-MC-5610.txt
mejor-caso-bt,BT-MC-5620,5620,1000,instancias/mejor-caso-bt/BT-MC-5620.txt
mejor-caso-bt,BT-MC-5630,5630,1000,instancias/mejor-caso-bt/BT-MC-5630.txt
mejor-caso-bt,BT-MC-5640,5640,1000,instancias/mejor-caso-bt/BT-MC-5640.txt
mejor-caso-bt,BT-MC-5650,5650,1000,instancias/mejor-caso-bt/BT-MC-5650.txt
mejor-caso-bt,BT-MC-5660,5660,1000,instancias/mejor-caso-bt/BT-MC-5660.txt
mejor-caso-bt,BT-MC-5670,5670,1000,instancias/mejor-caso-bt/BT-MC-5670.txt
mejor-caso-bt,BT-MC-5680,5680,1000,instancias/mejor-caso-bt/BT-MC-5680.txt
mejor-caso-bt,BT-MC-5690,5690,1000,instancias/mejor-caso-bt/BT-MC-5690.txt
mejor-caso-bt,BT-MC-5700,5700,1000,instancias/mejor-caso-bt/BT-MC-5700.txt
mejor-caso-bt,BT-MC-5710,5710,1000,instancias/mejor-caso-bt/BT-MC-5710.txt
mejor-caso-bt,BT-MC-5720,5720,1000,instancias/mejor-caso-bt/BT-MC-5720.txt
mejor-caso-bt,BT-MC-5730,5730,1000,instancias/mejor-caso-bt/BT-MC-5730.txt
mejor-caso-bt,BT-MC-5740,5740,1000,instancias/mejor-caso-bt/BT-MC-5740.txt
mejor-caso-bt,BT-MC-5750,5750,1000,instancias/mejor-caso-bt/BT-MC-5750.txt
mejor-caso-bt,BT-MC-5760,5760,1000,instancias/mejor-caso-bt/BT-MC-5760.txt
mejor-caso-bt,BT-MC-5770,5770,1000,instancias/mejor-caso-bt/BT-MC-5770.txt
mejor-caso-bt,BT-MC-5780,5780,1000,instancias/mejor-caso-bt/BT-MC-5780.txt
mejor-caso-bt,BT-MC-5790,5790,1000,instancias/mejor-caso-bt/BT-MC-5790.txt
mejor-caso-bt,BT-MC-5800,5800,1000,instancias/mejor-caso-bt/BT-MC-5800.txt
mejor-caso-bt,BT-MC-5810,5810,1000,instancias/mejor-caso-bt/BT-MC-5810.txt
mejor-caso-bt,BT-MC-5820,5820,1000,instancias/mejor-caso-bt/BT-MC-5820.txt
mejor-caso-bt,BT-MC-5830,5830,1000,instancias/mejor-caso-bt/BT-MC-5830.txt
mejor-caso-bt,BT-MC-5840,5840,1000,instancias/mejor-caso-bt/BT-MC-5840.txt
mejor-caso-bt,BT-MC-5850,5850,1000,instancias/mejor-caso-bt/BT-MC-5850.txt
mejor-caso-bt,BT-MC-5860,5860,1000,instancias/mejor-caso-bt/BT-MC-5860.txt
mejor-caso-bt,BT-MC-5870,5870,1000,instancias/mejor-caso-bt/BT-MC-5870.txt
mejor-caso-bt,BT-MC-5880,5880,1000,instancias/mejor-caso-bt/BT-MC-5880.txt
mejor-caso-bt,BT-MC-5890,5890,1000,instancias/mejor-caso-bt/BT-MC-5890.txt
mejor-caso-bt,BT-MC-5900,5900,1000,instancias/mejor-caso-bt/BT-MC-5900.txt
mejor-caso-bt,BT-MC-5910,5910,1000,instancias/mejor-caso-bt/BT-MC-5910.txt
mejor-caso-bt,BT-MC-5920,5920,1000,instancias/mejor-caso-bt/BT-MC-5920.txt
mejor-caso-bt,BT-MC-5930,5930,1000,instancias/mejor-caso-bt/BT-MC-5930.txt
mejor-caso-bt,BT-MC-5940,5940,1000,instancias/mejor-caso-bt/BT-MC-5940.txt
mejor-caso-bt,BT-MC-5950,5950,1000,instancias/mejor-caso-bt/BT-MC-5950.txt
mejor-caso-bt,BT-MC-5960,5960,1000,instancias/mejor-caso-bt/BT-MC-5960.txt
mejor-caso-bt,BT-MC-5970,5970,1000,instancias/mejor-caso-bt/BT-MC-5970.txt
mejor-caso-bt,BT-MC-5980,5980,1000,instancias/mejor-caso-bt/BT-MC-5980.txt
mejor-caso-bt,BT-MC-5990,5990,1000,instancias/mejor-caso-bt/BT-MC-5990.txt
mejor-caso-bt,BT-MC-6000,6000,1000,instancias/mejor-caso-bt/BT-MC-6000.txt
mejor-caso-bt,BT-MC-6010,6010,1000,instancias/mejor-caso-bt/BT-MC-6010.txt
mejor-caso-bt,BT-MC-6020,6020,1000,instancias/mejor-caso-bt/BT-MC-6020.txt
mejor-caso-bt,BT-MC-6030,6030,1000,instancias/mejor-caso-bt/BT-MC-6030.txt
mejor-caso-bt,BT-MC-6040,6040,1000,instancias/mejor-caso-bt/BT-MC-6040.txt
mejor-caso-bt,BT-MC-6050,6050,1000,instancias/mejor-caso-bt/BT-MC-6050.txt
mejor-caso-bt,BT-MC-6060,6060,1000,instancias/mejor-caso-bt/BT-MC-6060.txt
mejor-caso-bt,BT-MC-6070,6070,1000,instancias/mejor-caso-bt/BT-MC-6070.txt
mejor-caso-bt,BT-MC-6080,6080,1000,instancias/mejor-caso-bt/BT-MC-6080.txt
mejor-caso-bt,BT-MC-6090,6090,1000,instancias/mejor-caso-bt/BT-MC-6090.txt
mejor-caso-bt,BT-MC-6100,6100,1000,instancias/mejor-caso-bt/BT-MC-6100.txt
mejor-caso-bt,BT-MC-6110,6110,1000,instancias/mejor-caso-bt/BT-MC-6110.txt
mejor-caso-bt,BT-MC-6120,6120,1000,instancias/mejor-caso-bt/BT-MC-6120.txt
mejor-caso-bt,BT-MC-6130,6130,1000,instancias/mejor-caso-bt/BT-MC-6130.txt
mejor-caso-bt,BT-MC-6140,6140,1000,instancias/mejor-caso-bt/BT-MC-6140.txt
mejor-caso-bt,BT-MC-6150,6150,1000,instancias/mejor-caso-bt/BT-MC-6150.txt
mejor-caso-bt,BT-MC-6160,6160,1000,instancias/mejor-caso-bt/BT-MC-6160.txt
mejor-caso-bt,BT-MC-6170,6170,1000,instancias/mejor-caso-bt/BT-MC-6170.txt
mejor-caso-bt,BT-MC-6180,6180,1000,instancias/mejor-caso-bt/BT-MC-6180.txt
mejor-caso-bt,BT-MC-6190,6190,1000,instancias/mejor-caso-bt/BT-MC-6190.txt
mejor-caso-bt,BT-MC-6200,6200,1000,instancias/mejor-caso-bt/BT-MC-6200.txt
mejor-caso-bt,BT-MC-6210,6210,1000,instancias/mejor-caso-bt/BT-MC-6210.txt
mejor-caso-bt,BT-MC-6220,6220,1000,instancias/mejor-caso-bt/BT-MC-6220.txt
mejor-caso-bt,BT-MC-6230,6230,1000,instancias/mejor-caso-bt/BT-MC-6230.txt
mejor-caso-bt,BT-MC-6240,6240,1000,instancias/mejor-caso-bt/BT-MC-6240.txt
mejor-caso-bt,BT-MC-6250,6250,1000,instancias/mejor-caso-bt/BT-MC-6250.txt
mejor-caso-bt,BT-MC-6260,6260,1000,instancias/mejor-caso-bt/BT-MC-6260.txt
mejor-caso-bt,BT-MC-6270,6270,1000,instancias/mejor-caso-bt/BT-MC-6270.txt
mejor-caso-bt,BT-MC-6280,6280,1000,instancias/mejor-caso-bt/BT-MC-6280.txt
mejor-caso-bt,BT-MC-6290,6290,1000,instancias/mejor-caso-bt/BT-MC-6290.txt
mejor-caso-bt,BT-MC-6300,6300,1000,instancias/mejor-caso-bt/BT-MC-6300.txt
mejor-caso-bt,BT-MC-6310,6310,1000,instancias/mejor-caso-bt/BT-MC-6310.txt
mejor-caso-bt,BT-MC-6320,6320,1000,instancias/mejor-caso-bt/BT-MC-6320.txt
mejor-caso-bt,BT-MC-6330,6330,1000,instancias/mejor-caso-bt/BT-MC-6330.txt
mejor-caso-bt,BT-MC-6340,6340,1000,instancias/mejor-caso-bt/BT-MC-6340.txt
mejor-caso-bt,BT-MC-6350,6350,1000,instancias/mejor-caso-bt/BT-MC-6350.txt
mejor-caso-bt,BT-MC-6360,6360,1000,instancias/mejor-caso-bt/BT-MC-6360.txt
mejor-caso-bt,BT-MC-6370,6370,1000,instancias/mejor-caso-bt/BT-MC-6370.txt
mejor-caso-bt,BT-MC-6380,6380,1000,instancias/mejor-caso-bt/BT-MC-6380.txt
mejor-caso-bt,BT-MC-6390,6390,1000,instancias/mejor-caso-bt/BT-MC-6390.txt
mejor-caso-bt,BT-MC-6400,6400,1000,instancias/mejor-caso-bt/BT-MC-6400.txt
mejor-caso-bt,BT-MC-6410,6410,1000,instancias/mejor-caso-bt/BT-MC-6410.txt
mejor-caso-bt,BT-MC-6420,6420,1000,instancias/mejor-caso-bt/BT-MC-6420.txt
mejor-caso-bt,BT-MC-6430,6430,1000,instancias/mejor-caso-bt/BT-MC-6430.txt
mejor-caso-bt,BT-MC-6440,6440,1000,instancias/mejor-caso-bt/BT-MC-6440.txt
mejor-caso-bt,BT-MC-6450,6450,1000,instancias/mejor-caso-bt/BT-MC-6450.txt
mejor-caso-bt,BT-MC-6460,6460,1000,instancias/mejor-caso-bt/BT-MC-6460.txt
mejor-caso-bt,BT-MC-6470,6470,1000,instancias/mejor-caso-bt/BT-MC-6470.txt
mejor-caso-bt,BT-MC-6480,6480,1000,instancias/mejor-caso-bt/BT-MC-6480.txt
mejor-caso-bt,BT-MC-6490,6490,1000,instancias/mejor-caso-bt/BT-MC-6490.txt
mejor-caso-bt,BT-MC-6500,6500,1000,instancias/mejor-caso-bt/BT-MC-6500.txt
mejor-caso-bt,BT-MC-6510,6510,1000,instancias/mejor-caso-bt/BT-MC-6510.txt
mejor-caso-bt,BT-MC-6520,6520,1000,instancias/mejor-caso-bt/BT-MC-6520.txt
mejor-caso-bt,BT-MC-6530,6530,1000,instancias/mejor-caso-bt/BT-MC-6530.txt
mejor-caso-bt,BT-MC-6540,6540,1000,instancias/mejor-caso-bt/BT-MC-6540.txt
mejor-caso-bt,BT-MC-6550,6550,1000,instancias/mejor-caso-bt/BT-MC-6550.txt
mejor-caso-bt,BT-MC-6560,6560,1000,instancias/mejor-caso-bt/BT-MC-6560.txt
mejor-caso-bt,BT-MC-6570,6570,1000,instancias/mejor-caso-bt/BT-MC-6570.txt
mejor-caso-bt,BT-MC-6580,6580,1000,instancias/mejor-caso-bt/BT-MC-6580.txt
mejor-caso-bt,BT-MC-6590,6590,1000,instancias/mejor-caso-bt/BT-MC-6590.txt
mejor-caso-bt,BT-MC-6600,6600,1000,instancias/mejor-caso-bt/BT-MC-6600.txt
mejor-caso-bt,BT-MC-6610,6610,1000,instancias/mejor-caso-bt/BT-MC-6610.txt
mejor-caso-bt,BT-MC-6620,6620,1000,instancias/mejor-caso-bt/BT-MC-6620.txt
mejor-caso-bt,BT-MC-6630,6630,1000,instancias/mejor-caso-bt/BT-MC-6630.txt
mejor-caso-bt,BT-MC-6640,6640,1000,instancias/mejor-caso-bt/BT-MC-6640.txt
mejor-caso-bt,BT-MC-6650,6650,1000,instancias/mejor-caso-bt/BT-MC-6650.txt
mejor-caso-bt,BT-MC-6660,6660,1000,instancias/mejor-caso-bt/BT-MC-6660.txt
mejor-caso-bt,BT-MC-6670,6670,1000,instancias/mejor-caso-bt/BT-MC-6670.txt
mejor-caso-bt,BT-MC-6680,6680,1000,instancias/mejor-caso-bt/BT-MC-6680.txt
mejor-caso-bt,BT-MC-6690,6690,1000,instancias/mejor-caso-bt/BT-MC-6690.txt
mejor-caso-bt,BT-MC-6700,6700,1000,instancias/mejor-caso-bt/BT-MC-6700.txt
mejor-caso-bt,BT-MC-6710,6710,1000,instancias/mejor-caso-bt/BT-MC-6710.txt
mejor-caso-bt,BT-MC-6720,6720,1000,instancias/mejor-caso-bt/BT-MC-6720.txt
mejor-caso-bt,BT-MC-6730,6730,1000,instancias/mejor-caso-bt/BT-MC-6730.txt
mejor-caso-bt,BT-MC-6740,6740,1000,instancias/mejor-caso-bt/BT-MC-6740.txt
mejor-caso-bt,BT-MC-6750,6750,1000,instancias/mejor-caso-bt/BT-MC-6750.txt
mejor-caso-bt,BT-MC-6760,6760,1000,instancias/mejor-caso-bt/BT-MC-6760.txt
mejor-caso-bt,BT-MC-6770,6770,1000,instancias/mejor-caso-bt/BT-MC-6770.txt
mejor-caso-bt,BT-MC-6780,6780,1000,instancias/mejor-caso-bt/BT-MC-6780.txt
mejor-caso-bt,BT-MC-6790,6790,1000,instancias/mejor-caso-bt/BT-MC-6790.txt
mejor-caso-bt,BT-MC-6800,6800,1000,instancias/mejor-caso-bt/BT-MC-6800.txt
mejor-caso-bt,BT-MC-6810,6810,1000,instancias/mejor-caso-bt/BT-MC-6810.txt
mejor-caso-bt,BT-MC-6820,6820,1000,instancias/mejor-caso-bt/BT-MC-6820.txt
mejor-caso-bt,BT-MC-6830,6830,1000,instancias/mejor-caso-bt/BT-MC-6830.txt
mejor-caso-bt,BT-MC-6840,6840,1000,instancias/mejor-caso-bt/BT-MC-6840.txt
mejor-caso-bt,BT-MC-6850,6850,1000,instancias/mejor-caso-bt/BT-MC-6850.txt
mejor-caso-bt,BT-MC-6860,6860,1000,instancias/mejor-caso-bt/BT-MC-6860.txt
mejor-caso-bt,BT-MC-6870,6870,1000,instancias/mejor-caso-bt/BT-MC-6870.txt
mejor-caso-bt,BT-MC-6880,6880,1000,instancias/mejor-caso-bt/BT-MC-6880.txt
mejor-caso-bt,BT-MC-6890,6890,1000,instancias/mejor-caso-bt/BT-MC-6890.txt
mejor-caso-bt,BT-MC-6900,6900,1000,instancias/mejor-caso-bt/BT-MC-6900.txt
mejor-caso-bt,BT-MC-6910,6910,1000,instancias/mejor-caso-bt/BT-MC-6910.txt
mejor-caso-bt,BT-MC-6920,6920,1000,instancias/mejor-caso-bt/BT-MC-6920.txt
mejor-caso-bt,BT-MC-6930,6930,1000,instancias/mejor-caso-bt/BT-MC-6930.txt
mejor-caso-bt,BT-MC-6940,6940,1000,instancias/mejor-caso-bt/BT-MC-6940.txt
mejor-caso-bt,BT-MC-6950,6950,1000,instancias/mejor-caso-bt/BT-MC-6950.txt
mejor-caso-bt,BT-MC-6960,6960,1000,instancias/mejor-caso-bt/BT-MC-6960.txt
mejor-caso-bt,BT-MC-6970,6970,1000,instancias/mejor-caso-bt/BT-MC-6970.txt
mejor-caso-bt,BT-MC-6980,6980,1000,instancias/mejor-caso-bt/BT-MC-6980.txt
mejor-caso-bt,BT-MC-6990,6990,1000,instancias/mejor-caso-bt/BT-MC-6990.txt
mejor-caso-bt,BT-MC-7000,7000,1000,instancias/mejor-caso-bt/BT-MC-7000.txt
mejor-caso-bt,BT-MC-7010,7010,1000,instancias/mejor-caso-bt/BT-MC-7010.txt
mejor-caso-bt,BT-MC-7020,7020,1000,instancias/mejor-caso-bt/BT-MC-7020.txt
mejor-caso-bt,BT-MC-7030,7030,1000,instancias/mejor-caso-bt/BT-MC-7030.txt
mejor-caso-bt,BT-MC-7040,7040,1000,instancias/mejor-caso-bt/BT-MC-7040.txt
mejor-caso-bt,BT-MC-7050,7050,1000,instancias/mejor-caso-bt/BT-MC-7050.txt
mejor-caso-bt,BT-MC-7060,7060,1000,instancias/mejor-caso-bt/BT-MC-7060.txt
mejor-caso-bt,BT-MC-7070,7070,1000,instancias/mejor-caso-bt/BT-MC-7070.txt
mejor-caso-bt,BT-MC-7080,7080,1000,instancias/mejor-caso-bt/BT-MC-7080.txt
mejor-caso-bt,BT-MC-7090,7090,1000,instancias/mejor-caso-bt/BT-MC-7090.txt
mejor-caso-bt,BT-MC-7100,7100,1000,instancias/mejor-caso-bt/BT-MC-7100.txt
mejor-caso-bt,BT-MC-7110,7110,1000,instancias/mejor-caso-bt/BT-MC-7110.txt
mejor-caso-bt,BT-MC-7120,7120,1000,instancias/mejor-caso-bt/BT-MC-7120.txt
mejor-caso-bt,BT-MC-7130,7130,1000,instancias/mejor-caso-bt/BT-MC-7130.txt
mejor-caso-bt,BT-MC-7140,7140,1000,instancias/mejor-caso-bt/BT-MC-7140.txt
mejor-caso-bt,BT-MC-7150,7150,1000,instancias/mejor-caso-bt/BT-MC-7150.txt
mejor-caso-bt,BT-MC-7160,7160,1000,instancias/mejor-caso-bt/BT-MC-7160.txt
mejor-caso-bt,BT-MC-7170,7170,1000,instancias/mejor-caso-bt/BT-MC-7170.txt
mejor-caso-bt,BT-MC-7180,7180,1000,instancias/mejor-caso-bt/BT-MC-7180.txt
mejor-caso-bt,BT-MC-7190,7190,1000,instancias/mejor-caso-bt/BT-MC-7190.txt
mejor-caso-bt,BT-MC-7200,7200,1000,instancias/mejor-caso-bt/BT-MC-7200.txt
mejor-caso-bt,BT-MC-7210,7210,1000,instancias/mejor-caso-bt/BT-MC-7210.txt
mejor-caso-bt,BT-MC-7220,7220,1000,instancias/mejor-caso-bt/BT-MC-7220.txt
mejor-caso-bt,BT-MC-7230,7230,1000,instancias/mejor-caso-bt/BT-MC-7230.txt
mejor-caso-bt,BT-MC-7240,7240,1000,instancias/mejor-caso-bt/BT-MC-7240.txt
mejor-caso-bt,BT-MC-7250,7250,1000,instancias/mejor-caso-bt/BT-MC-7250.txt
mejor-caso-bt,BT-MC-7260,7260,1000,instancias/mejor-caso-bt/BT-MC-7260.txt
mejor-caso-bt,BT-MC-7270,7270,1000,instancias/mejor-caso-bt/BT-MC-7270.txt
mejor-caso-bt,BT-MC-7280,7280,1000,instancias/mejor-caso-bt/BT-MC-7280.txt
mejor-caso-bt,BT-MC-7290,7290,1000,instancias/mejor-caso-bt/BT-MC-7290.txt
mejor-caso-bt,BT-MC-7300,7300,1000,instancias/mejor-caso-bt/BT-MC-7300.txt
mejor-caso-bt,BT-MC-7310,7310,1000,instancias/mejor-caso-bt/BT-MC-7310.txt
mejor-caso-bt,BT-MC-7320,7320,1000,instancias/mejor-caso-bt/BT-MC-7320.txt
mejor-caso-bt,BT-MC-7330,7330,1000,instancias/mejor-caso-bt/BT-MC-7330.txt
mejor-caso-bt,BT-MC-7340,7340,1000,instancias/mejor-caso-bt/BT-MC-7340.txt
mejor-caso-bt,BT-MC-7350,7350,1000,instancias/mejor-caso-bt/BT-MC-7350.txt
mejor-caso-bt,BT-MC-7360,7360,1000,instancias/mejor-caso-bt/BT-MC-7360.txt
mejor-caso-bt,BT-MC-7370,7370,1000,instancias/mejor-caso-bt/BT-MC-7370.txt
mejor-caso-bt,BT-MC-7380,7380,1000,instancias/mejor-caso-bt/BT-MC-7380.txt
mejor-caso-bt,BT-MC-7390,7390,1000,instancias/mejor-caso-bt/BT-MC-7390.txt
mejor-caso-bt,BT-MC-7400,7400,1000,instancias/mejor-caso-bt/BT-MC-7400.txt
mejor-caso-bt,BT-MC-7410,7410,1000,instancias/mejor-caso-bt/BT-MC-7410.txt
mejor-caso-bt,BT-MC-7420,7420,1000,instancias/mejor-caso-bt/BT-MC-7420.txt
mejor-caso-bt,BT-MC-7430,7430,1000,instancias/mejor-caso-bt/BT-MC-7430.txt
mejor-caso-bt,BT-MC-7440,7440,1000,instancias/mejor-caso-bt/BT-MC-7440.txt
mejor-caso-bt,BT-MC-7450,7450,1000,instancias/mejor-caso-bt/BT-MC-7450.txt
mejor-caso-bt,BT-MC-7460,7460,1000,instancias/mejor-caso-bt/BT-MC-7460.txt
mejor-caso-bt,BT-MC-7470,7470,1000,instancias/mejor-caso-bt/BT-MC-7470.txt
mejor-caso-bt,BT-MC-7480,7480,1000,instancias/mejor-caso-bt/BT-MC-7480.txt
mejor-caso-bt,BT-MC-7490,7490,1000,instancias/mejor-caso-bt/BT-MC-7490.txt
mejor-caso-bt,BT-MC-7500,7500,1000,instancias/mejor-caso-bt/BT-MC-7500.txt
mejor-caso-bt,BT-MC-7510,7510,1000,instancias/mejor-caso-bt/BT-MC-7510.txt
mejor-caso-bt,BT-MC-7520,7520,1000,instancias/mejor-caso-bt/BT-MC-7520.txt
mejor-caso-bt,BT-MC-7530,7530,1000,instancias/mejor-caso-bt/BT-MC-7530.txt
mejor-caso-bt,BT-MC-7540,7540,1000,instancias/mejor-caso-bt/BT-MC-7540.txt
mejor-caso-bt,BT-MC-7550,7550,1000,instancias/mejor-caso-bt/BT-MC-7550.txt
mejor-caso-bt,BT-MC-7560,7560,1000,instancias/mejor-caso-bt/BT-MC-7560.txt
mejor-caso-bt,BT-MC-7570,7570,1000,instancias/mejor-caso-bt/BT-MC-7570.txt
mejor-caso-bt,BT-MC-7580,7580,1000,instancias/mejor-caso-bt/BT-MC-7580.txt
mejor-caso-bt,BT-MC-7590,7590,1000,instancias/mejor-caso-bt/BT-MC-7590.txt
mejor-caso-bt,BT-MC-7600,7600,1000,instancias/mejor-caso-bt/BT-MC-7600.txt
mejor-caso-bt,BT-MC-7610,7610,1000,instancias/mejor-caso-bt/BT-MC-7610.txt
mejor-caso-bt,BT-MC-7620,7620,1000,instancias/mejor-caso-bt/BT-MC-7620.txt
mejor-caso-bt,BT-MC-7630,7630,1000,instancias/mejor-caso-bt/BT-MC-7630.txt
mejor-caso-bt,BT-MC-7640,7640,1000,instancias/mejor-caso-bt/BT-MC-7640.txt
mejor-caso-bt,BT-MC-7650,7650,1000,instancias/mejor-caso-bt/BT-MC-7650.txt
mejor-caso-bt,BT-MC-7660,7660,1000,instancias/mejor-caso-bt/BT-MC-7660.txt
mejor-caso-bt,BT-MC-7670,7670,1000,instancias/mejor-caso-bt/BT-MC-7670.txt
mejor-caso-bt,BT-MC-7680,7680,1000,instancias/mejor-caso-bt/BT-MC-7680.txt
mejor-caso-bt,BT-MC-7690,7690,1000,instancias/mejor-caso-bt/BT-MC-7690.txt
mejor-caso-bt,BT-MC-7700,7700,1000,instancias/mejor-caso-bt/BT-MC-7700.txt
mejor-caso-bt,BT-MC-7710,7710,1000,instancias/mejor-caso-bt/BT-MC-7710.txt
mejor-caso-bt,BT-MC-7720,7720,1000,instancias/mejor-caso-bt/BT-MC-7720.txt
mejor-caso-bt,BT-MC-7730,7730,1000,instancias/mejor-caso-bt/BT-MC-7730.txt
mejor-caso-bt,BT-MC-7740,7740,1000,instancias/mejor-caso-bt/BT-MC-7740.txt
mejor-caso-bt,BT-MC-7750,7750,1000,instancias/mejor-caso-bt/BT-MC-7750.txt
mejor-caso-bt,BT-MC-7760,7760,1000,instancias/mejor-caso-bt/BT-MC-7760.txt
mejor-caso-bt,BT-MC-7770,7770,1000,instancias/mejor-caso-bt/BT-MC-7770.txt
mejor-caso-bt,BT-MC-7780,7780,1000,instancias/mejor-caso-bt/BT-MC-7780.txt
mejor-caso-bt,BT-MC-7790,7790,1000,instancias/mejor-caso-bt/BT-MC-7790.txt
mejor-caso-bt,BT-MC-7800,7800,1000,instancias/mejor-caso-bt/BT-MC-7800.txt
mejor-caso-bt,BT-MC-7810,7810,1000,instancias/mejor-caso-bt/BT-MC-7810.txt
mejor-caso-bt,BT-MC-7820,7820,1000,instancias/mejor-caso-bt/BT-MC-7820.txt
mejor-caso-bt,BT-MC-7830,7830,1000,instancias/mejor-caso-bt/BT-MC-7830.txt
mejor-caso-bt,BT-MC-7840,7840,1000,instancias/mejor-caso-bt/BT-MC-7840.txt
mejor-caso-bt,BT-MC-7850,7850,1000,instancias/mejor-caso-bt/BT-MC-7850.txt
mejor-caso-bt,BT-MC-7860,7860,1000,instancias/mejor-caso-bt/BT-MC-7860.txt
mejor-caso-bt,BT-MC-7870,7870,1000,instancias/mejor-caso-bt/BT-MC-7870.txt
mejor-caso-bt,BT-MC-7880,7880,1000,instancias/mejor-caso-bt/BT-MC-7880.txt
mejor-caso-bt,BT-MC-7890,7890,1000,instancias/mejor-caso-bt/BT-MC-7890.txt
mejor-caso-bt,BT-MC-7900,7900,1000,instancias/mejor-caso-bt/BT-MC-7900.txt
mejor-caso-bt,BT-MC-7910,7910,1000,instancias/mejor-caso-bt/BT-MC-7910.txt
mejor-caso-bt,BT-MC-7920,7920,1000,instancias/mejor-caso-bt/BT-MC-7920.txt
mejor-caso-bt,BT-MC-7930,7930,1000,instancias/mejor-caso-bt/BT-MC-7930.txt
mejor-caso-bt,BT-MC-7940,7940,1000,instancias/mejor-caso-bt/BT-MC-7940.txt
mejor-caso-bt,BT-MC-7950,7950,1000,instancias/mejor-caso-bt/BT-MC-7950.txt
mejor-caso-bt,BT-MC-7960,7960,1000,instancias/mejor-caso-bt/BT-MC-7960.txt
mejor-caso-bt,BT-MC-7970,7970,1000,instancias/mejor-caso-bt/BT-MC-7970.txt
mejor-caso-bt,BT-MC-7980,7980,1000,instancias/mejor-caso-bt/BT-MC-7980.txt
mejor-caso-bt,BT-MC-7990,7990,1000,instancias/mejor-caso-bt/BT-MC-7990.txt
mejor-caso-bt,BT-MC-8000,8000,1000,instancias/mejor-caso-bt/BT-MC-8000.txt
mejor-caso-bt,BT-MC-8010,8010,1000,instancias/mejor-caso-bt/BT-MC-8010.txt
mejor-caso-bt,BT-MC-8020,8020,1000,instancias/mejor-caso-bt/BT-MC-8020.txt
mejor-caso-bt,BT-MC-8030,8030,1000,instancias/mejor-caso-bt/BT-MC-8030.txt
mejor-caso-bt,BT-MC-8040,8040,1000,instancias/mejor-caso-bt/BT-MC-8040.txt
mejor-caso-bt,BT-MC-8050,8050,1000,instancias/mejor-caso-bt/BT-MC-8050.txt
mejor-caso-bt,BT-MC-8060,8060,1000,instancias/mejor-caso-bt/BT-MC-8060.txt
mejor-caso-bt,BT-MC-8070,8070,1000,instancias/mejor-caso-bt/BT-MC-8070.txt
mejor-caso-bt,BT-MC-8080,8080,1000,instancias/mejor-caso-bt/BT-MC-8080.txt
mejor-caso-bt,BT-MC-8090,8090,1000,instancias/mejor-caso-bt/BT-MC-8090.txt
mejor-caso-bt,BT-MC-8100,8100,1000,instancias/mejor-caso-bt/BT-MC-8100.txt
mejor-caso-bt,BT-MC-8110,8110,1000,instancias/mejor-caso-bt/BT-MC-8110.txt
mejor-caso-bt,BT-MC-8120,8120,1000,instancias/mejor-caso-bt/BT-MC-8120.txt
mejor-caso-bt,BT-MC-8130,8130,1000,instancias/mejor-caso-bt/BT-MC-8130.txt
mejor-caso-bt,BT-MC-8140,8140,1000,instancias/mejor-caso-bt/BT-MC-8140.txt
mejor-caso-bt,BT-MC-8150,8150,1000,instancias/mejor-caso-bt/BT-MC-8150.txt
mejor-caso-bt,BT-MC-8160,8160,1000,instancias/mejor-caso-bt/BT-MC-8160.txt
mejor-caso-bt,BT-MC-8170,8170,1000,instancias/mejor-caso-bt/BT-MC-8170.txt
mejor-caso-bt,BT-MC-8180,8180,1000,instancias/mejor-caso-bt/BT-MC-8180.txt
mejor-caso-bt,BT-MC-8190,8190,1000,instancias/mejor-caso-bt/BT-MC-8190.txt
mejor-caso-bt,BT-MC-8200,8200,1000,instancias/mejor-caso-bt/BT-MC-8200.txt
mejor-caso-bt,BT-MC-8210,8210,1000,instancias/mejor-caso-bt/BT-MC-8210.txt
mejor-caso-bt,BT-MC-8220,8220,1000,instancias/mejor-caso-bt/BT-MC-8220.txt
mejor-caso-bt,BT-MC-8230,8230,1000,instancias/mejor-caso-bt/BT-MC-8230.txt
mejor-caso-bt,BT-MC-8240,8240,1000,instancias/mejor-caso-bt/BT-MC-8240.txt
mejor-caso-bt,BT-MC-8250,8250,1000,instancias/mejor-caso-bt/BT-MC-8250.txt
mejor-caso-bt,BT-MC-8260,8260,1000,instancias/mejor-caso-bt/BT-MC-8260.txt
mejor-caso-bt,BT-MC-8270,8270,1000,instancias/mejor-caso-bt/BT-MC-8270.txt
mejor-caso-bt,BT-MC-8280,8280,1000,instancias/mejor-caso-bt/BT-MC-8280.txt
mejor-caso-bt,BT-MC-8290,8290,1000,instancias/mejor-caso-bt/BT-MC-8290.txt
mejor-caso-bt,BT-MC-8300,8300,1000,instancias/mejor-caso-bt/BT-MC-8300.txt
mejor-caso-bt,BT-MC-8310,8310,1000,instancias/mejor-caso-bt/BT-MC-8310.txt
mejor-caso-bt,BT-MC-8320,8320,1000,instancias/mejor-caso-bt/BT-MC-8320.txt
mejor-caso-bt,BT-MC-8330,8330,1000,instancias/mejor-caso-bt/BT-MC-8330.txt
mejor-caso-bt,BT-MC-8340,8340,1000,instancias/mejor-caso-bt/BT-MC-8340.txt
mejor-caso-bt,BT-MC-8350,8350,1000,instancias/mejor-caso-bt/BT-MC-8350.txt
mejor-caso-bt,BT-MC-8360,8360,1000,instancias/mejor-caso-bt/BT-MC-8360.txt
mejor-caso-bt,BT-MC-8370,8370,1000,instancias/mejor-caso-bt/BT-MC-8370.txt
mejor-caso-bt,BT-MC-8380,8380,1000,instancias/mejor-caso-bt/BT-MC-8380.txt
mejor-caso-bt,BT-MC-8390,8390,1000,instancias/mejor-caso-bt/BT-MC-8390.txt
mejor-caso-bt,BT-MC-8400,8400,1000,instancias/mejor-caso-bt/BT-MC-8400.txt
mejor-caso-bt,BT-MC-8410,8410,1000,instancias/mejor-caso-bt/BT-MC-8410.txt
mejor-caso-bt,BT-MC-8420,8420,1000,instancias/mejor-caso-bt/BT-MC-8420.txt
mejor-caso-bt,BT-MC-8430,8430,1000,instancias/mejor-caso-bt/BT-MC-8430.txt
mejor-caso-bt,BT-MC-8440,8440,1000,instancias/mejor-caso-bt/BT-MC-8440.txt
mejor-caso-bt,BT-MC-8450,8450,1000,instancias/mejor-caso-bt/BT-MC-8450.txt
mejor-caso-bt,BT-MC-8460,8460,1000,instancias/mejor-caso-bt/BT-MC-8460.txt
mejor-caso-bt,BT-MC-8470,8470,1000,instancias/mejor-caso-bt/BT-MC-8470.txt
mejor-caso-bt,BT-MC-8480,8480,1000,instancias/mejor-caso-bt/BT-MC-8480.txt
mejor-caso-bt,BT-MC-8490,8490,1000,instancias/mejor-caso-bt/BT-MC-8490.txt
mejor-caso-bt,BT-MC-8500,8500,1000,instancias/mejor-caso-bt/BT-MC-8500.txt
mejor-caso-bt,BT-MC-8510,8510,1000,instancias/mejor-caso-bt/BT-MC-8510.txt
mejor-caso-bt,BT-MC-8520,8520,1000,instancias/mejor-caso-bt/BT-MC-8520.txt
mejor-caso-bt,BT-MC-8530,8530,1000,instancias/mejor-caso-bt/BT-MC-8530.txt
mejor-caso-bt,BT-MC-8540,8540,1000,instancias/mejor-caso-bt/BT-MC-8540.txt
mejor-caso-bt,BT-MC-8550,8550,1000,instancias/mejor-caso-bt/BT-MC-8550.txt
mejor-caso-bt,BT-MC-8560,8560,1000,instancias/mejor-caso-bt/BT-MC-8560.txt
mejor-caso-bt,BT-MC-8570,8570,1000,instancias/mejor-caso-bt/BT-MC-8570.txt
mejor-caso-bt,BT-MC-8580,8580,1000,instancias/mejor-caso-bt/BT-MC-8580.txt
mejor-caso-bt,BT-MC-8590,8590,1000,instancias/mejor-caso-bt/BT-MC-8590.txt
mejor-caso-bt,BT-MC-8600,8600,1000,instancias/mejor-caso-bt/BT-MC-8600.txt
mejor-caso-bt,BT-MC-8610,8610,1000,instancias/mejor-caso-bt/BT-MC-8610.txt
mejor-caso-bt,BT-MC-8620,8620,1000,instancias/mejor-caso-bt/BT-MC-8620.txt
mejor-caso-bt,BT-MC-8630,8630,1000,instancias/mejor-caso-bt/BT-MC-8630.txt
mejor-caso-bt,BT-MC-8640,8640,1000,instancias/mejor-caso-bt/BT-MC-8640.txt
mejor-caso-bt,BT-MC-8650,8650,1000,instancias/mejor-caso-bt/BT-MC-8650.txt
mejor-caso-bt,BT-MC-8660,8660,1000,instancias/mejor-caso-bt/BT-MC-8660.txt
mejor-caso-bt,BT-MC-8670,8670,1000,instancias/mejor-caso-bt/BT-MC-8670.txt
mejor-caso-bt,BT-MC-8680,8680,1000,instancias/mejor-caso-bt/BT-MC-8680.txt
mejor-caso-bt,BT-MC-8690,8690,1000,instancias/mejor-caso-bt/BT-MC-8690.txt
mejor-caso-bt,BT-MC-8700,8700,1000,instancias/mejor-caso-bt/BT-MC-8700.txt
mejor-caso-bt,BT-MC-8710,8710,1000,instancias/mejor-caso-bt/BT-MC-8710.txt
mejor-caso-bt,BT-MC-8720,8720,1000,instancias/mejor-caso-bt/BT-MC-8720.txt
mejor-caso-bt,BT-MC-8730,8730,1000,instancias/mejor-caso-bt/BT-MC-8730.txt
mejor-caso-bt,BT-MC-8740,8740,1000,instancias/mejor-caso-bt/BT-MC-8740.txt
mejor-caso-bt,BT-MC-8750,8750,1000,instancias/mejor-caso-bt/BT-MC-8750.txt
mejor-caso-bt,BT-MC-8760,8760,1000,instancias/mejor-caso-bt/BT-MC-8760.txt
mejor-caso-bt,BT-MC-8770,8770,1000,instancias/mejor-caso-bt/BT-MC-8770.txt
mejor-caso-bt,BT-MC-8780,8780,1000,instancias/mejor-caso-bt/BT-MC-8780.txt
mejor-caso-bt,BT-MC-8790,8790,1000,instancias/mejor-caso-bt/BT-MC-8790.txt
mejor-caso-bt,BT-MC-8800,8800,1000,instancias/mejor-caso-bt/BT-MC-8800.txt
mejor-caso-bt,BT-MC-8810,8810,1000,instancias/mejor-caso-bt/BT-MC-8810.txt
mejor-caso-bt,BT-MC-8820,8820,1000,instancias/mejor-caso-bt/BT-MC-8820.txt
mejor-caso-bt,BT-MC-8830,8830,1000,instancias/mejor-caso-bt/BT-MC-8830.txt
mejor-caso-bt,BT-MC-8840,8840,1000,instancias/mejor-caso-bt/BT-MC-8840.txt
mejor-caso-bt,BT-MC-8850,8850,1000,instancias/mejor-caso-bt/BT-MC-8850.txt
mejor-caso-bt,BT-MC-8860,8860,1000,instancias/mejor-caso-bt/BT-MC-8860.txt
mejor-caso-bt,BT-MC-8870,8870,1000,instancias/mejor-caso-bt/BT-MC-8870.txt
mejor-caso-bt,BT-MC-8880,8880,1000,instancias/mejor-caso-bt/BT-MC-8880.txt
mejor-caso-bt,BT-MC-8890,8890,1000,instancias/mejor-caso-bt/BT-MC-8890.txt
mejor-caso-bt,BT-MC-8900,8900,1000,instancias/mejor-caso-bt/BT-MC-8900.txt
mejor-caso-bt,BT-MC-8910,8910,1000,instancias/mejor-caso-bt/BT-MC-8910.txt
mejor-caso-bt,BT-MC-8920,8920,1000,instancias/mejor-caso-bt/BT-MC-8920.txt
mejor-caso-bt,BT-MC-8930,8930,1000,instancias/mejor-caso-bt/BT-MC-8930.txt
mejor-caso-bt,BT-MC-8940,8940,1000,instancias/mejor-caso-bt/BT-MC-8940.txt
mejor-caso-bt,BT-MC-8950,8950,1000,instancias/mejor-caso-bt/BT-MC-8950.txt
mejor-caso-bt,BT-MC-8960,8960,1000,instancias/mejor-caso-bt/BT-MC-8960.txt
mejor-caso-bt,BT-MC-8970,8970,1000,instancias/mejor-caso-bt/BT-MC-8970.txt
mejor-caso-bt,BT-MC-8980,8980,1000,instancias/mejor-caso-bt/BT-MC-8980.txt
mejor-caso-bt,BT-MC-8990,8990,1000,instancias/mejor-caso-bt/BT-MC-8990.txt
mejor-caso-bt,BT-MC-9000,9000,1000,instancias/mejor-caso-bt/BT-MC-9000.txt
mejor-caso-bt,BT-MC-9010,9010,1000,instancias/mejor-caso-bt/BT-MC-9010.txt
mejor-caso-bt,BT-MC-9020,9020,1000,instancias/mejor-caso-bt/BT-MC-9020.txt
mejor-caso-bt,BT-MC-9030,9030,1000,instancias/mejor-caso-bt/BT-MC-9030.txt
mejor-caso-bt,BT-MC-9040,9040,1000,instancias/mejor-caso-bt/BT-MC-9040.txt
mejor-caso-bt,BT-MC-9050,9050,1000,instancias/mejor-caso-bt/BT-MC-9050.txt
mejor-caso-bt,BT-MC-9060,9060,1000,instancias/mejor-caso-bt/BT-MC-9060.txt
mejor-caso-bt,BT-MC-9070,9070,1000,instancias/mejor-caso-bt/BT-MC-9070.txt
mejor-caso-bt,BT-MC-9080,9080,1000,instancias/mejor-caso-bt/BT-MC-9080.txt
mejor-caso-bt,BT-MC-9090,9090,1000,instancias/mejor-caso-bt/BT-MC-9090.txt
mejor-caso-bt,BT-MC-9100,9100,1000,instancias/mejor-caso-bt/BT-MC-9100.txt
mejor-caso-bt,BT-MC-9110,9110,1000,instancias/mejor-caso-bt/BT-MC-9110.txt
mejor-caso-bt,BT-MC-9120,9120,1000,instancias/mejor-caso-bt/BT-MC-9120.txt
mejor-caso-bt,BT-MC-9130,9130,1000,instancias/mejor-caso-bt/BT-MC-9130.txt
mejor-caso-bt,BT-MC-9140,9140,1000,instancias/mejor-caso-bt/BT-MC-9140.txt
mejor-caso-bt,BT-MC-9150,9150,1000,instancias/mejor-caso-bt/BT-MC-9150.txt
mejor-caso-bt,BT-MC-9160,9160,1000,instancias/mejor-caso-bt/BT-MC-9160.txt
mejor-caso-bt,BT-MC-9170,9170,1000,instancias/mejor-caso-bt/BT-MC-9170.txt
mejor-caso-bt,BT-MC-9180,9180,1000,instancias/mejor-caso-bt/BT-MC-9180.txt
mejor-caso-bt,BT-MC-9190,9190,1000,instancias/mejor-caso-bt/BT-MC-9190.txt
mejor-caso-bt,BT-MC-9200,9200,1000,instancias/mejor-caso-bt/BT-MC-9200.txt
mejor-caso-bt,BT-MC-9210,9210,1000,instancias/mejor-caso-bt/BT-MC-9210.txt
mejor-caso-bt,BT-MC-9220,9220,1000,instancias/mejor-caso-bt/BT-MC-9220.txt
mejor-caso-bt,BT-MC-9230,9230,1000,instancias/mejor-caso-bt/BT-MC-9230.txt
mejor-caso-bt,BT-MC-9240,9240,1000,instancias/mejor-caso-bt/BT-MC-9240.txt
mejor-caso-bt,BT-MC-9250,9250,1000,instancias/mejor-caso-bt/BT-MC-9250.txt
mejor-caso-bt,BT-MC-9260,9260,1000,instancias/mejor-caso-bt/BT-MC-9260.txt
mejor-caso-bt,BT-MC-9270,9270,1000,instancias/mejor-caso-bt/BT-MC-9270.txt
mejor-caso-bt,BT-MC-9280,9280,1000,instancias/mejor-caso-bt/BT-MC-9280.txt
mejor-caso-bt,BT-MC-9290,9290,1000,instancias/mejor-caso-bt/BT-MC-9290.txt
mejor-caso-bt,BT-MC-9300,9300,1000,instancias/mejor-caso-bt/BT-MC-9300.txt
mejor-caso-bt,BT-MC-9310,9310,1000,instancias/mejor-caso-bt/BT-MC-9310.txt
mejor-caso-bt,BT-MC-9320,9320,1000,instancias/mejor-caso-bt/BT-MC-9320.txt
mejor-caso-bt,BT-MC-9330,9330,1000,instancias/mejor-caso-bt/BT-MC-9330.txt
mejor-caso-bt,BT-MC-9340,9340,1000,instancias/mejor-caso-bt/BT-MC-9340.txt
mejor-caso-bt,BT-MC-9350,9350,1000,instancias/mejor-caso-bt/BT-MC-9350.txt
mejor-caso-bt,BT-MC-9360,9360,1000,instancias/mejor-caso-bt/BT-MC-9360.txt
mejor-caso-bt,BT-MC-9370,9370,1000,instancias/mejor-caso-bt/BT-MC-9370.txt
mejor-caso-bt,BT-MC-9380,9380,1000,instancias/mejor-caso-bt/BT-MC-9380.txt
mejor-caso-bt,BT-MC-9390,9390,1000,instancias/mejor-caso-bt/BT-MC-9390.txt
mejor-caso-bt,BT-MC-9400,9400,1000,instancias/mejor-caso-bt/BT-MC-9400.txt
mejor-caso-bt,BT-MC-9410,9410,1000,instancias/mejor-caso-bt/BT-MC-9410.txt
mejor-caso-bt,BT-MC-9420,9420,1000,instancias/mejor-caso-bt/BT-MC-9420.txt
mejor-caso-bt,BT-MC-9430,9430,1000,instancias/mejor-caso-bt/BT-MC-9430.txt
mejor-caso-bt,BT-MC-9440,9440,1000,instancias/mejor-caso-bt/BT-MC-9440.txt
mejor-caso-bt,BT-MC-9450,9450,1000,instancias/mejor-caso-bt/BT-MC-9450.txt
mejor-caso-bt,BT-MC-9460,9460,1000,instancias/mejor-caso-bt/BT-MC-9460.txt
mejor-caso-bt,BT-MC-9470,9470,1000,instancias/mejor-caso-bt/BT-MC-9470.txt
mejor-caso-bt,BT-MC-9480,9480,1000,instancias/mejor-caso-bt/BT-MC-9480.txt
mejor-caso-bt,BT-MC-9490,9490,1000,instancias/mejor-caso-bt/BT-MC-9490.txt
mejor-caso-bt,BT-MC-9500,9500,1000,instancias/mejor-caso-bt/BT-MC-9500.txt
mejor-caso-bt,BT-MC-9510,9510,1000,instancias/mejor-caso-bt/BT-MC-9510.txt
mejor-caso-bt,BT-MC-9520,9520,1000,instancias/mejor-caso-bt/BT-MC-9520.txt
mejor-caso-bt,BT-MC-9530,9530,1000,instancias/mejor-caso-bt/BT-MC-9530.txt
mejor-caso-bt,BT-MC-9540,9540,1000,instancias/mejor-caso-bt/BT-MC-9540.txt
mejor-caso-bt,BT-MC-9550,9550,1000,instancias/mejor-caso-bt/BT-MC-9550.txt
mejor-caso-bt,BT-MC-9560,9560,1000,instancias/mejor-caso-bt/BT-MC-9560.txt
mejor-caso-bt,BT-MC-9570,9570,1000,instancias/mejor-caso-bt/BT-MC-9570.txt
mejor-caso-bt,BT-MC-9580,9580,1000,instancias/mejor-caso-bt/BT-MC-9580.txt
mejor-caso-bt,BT-MC-9590,9590,1000,instancias/mejor-caso-bt/BT-MC-9590.txt
mejor-caso-bt,BT-MC-9600,9600,1000,instancias/mejor-caso-bt/BT-MC-9600.txt
mejor-caso-bt,BT-MC-9610,9610,1000,instancias/mejor-caso-bt/BT-MC-9610.txt
mejor-caso-bt,BT-MC-9620,9620,1000,instancias/mejor-caso-bt/BT-MC-9620.txt
mejor-caso-bt,BT-MC-9630,9630,1000,instancias/mejor-caso-bt/BT-MC-9630.txt
mejor-caso-bt,BT-MC-9640,9640,1000,instancias/mejor-caso-bt/BT-MC-9640.txt
mejor-caso-bt,BT-MC-9650,9650,1000,instancias/mejor-caso-bt/BT-MC-9650.txt
mejor-caso-bt,BT-MC-9660,9660,1000,instancias/mejor-caso-bt/BT-MC-9660.txt
mejor-caso-bt,BT-MC-9670,9670,1000,instancias/mejor-caso-bt/BT-MC-9670.txt
mejor-caso-bt,BT-MC-9680,9680,1000,instancias/mejor-caso-bt/BT-MC-9680.txt
mejor-caso-bt,BT-MC-9690,9690,1000,instancias/mejor-caso-bt/BT-MC-9690.txt
mejor-caso-bt,BT-MC-9700,9700,1000,instancias/mejor-caso-bt/BT-MC-9700.txt
mejor-caso-bt,BT-MC-9710,9710,1000,instancias/mejor-caso-bt/BT-MC-9710.txt
mejor-caso-bt,BT-MC-9720,9720,1000,instancias/mejor-caso-bt/BT-MC-9720.txt
mejor-caso-bt,BT-MC-9730,9730,1000,instancias/mejor-caso-bt/BT-MC-9730.txt
mejor-caso-bt,BT-MC-9740,9740,1000,instancias/mejor-caso-bt/BT-MC-9740.txt
mejor-caso-bt,BT-MC-9750,9750,1000,instancias/mejor-caso-bt/BT-MC-9750.txt
mejor-caso-bt,BT-MC-9760,9760,1000,instancias/mejor-caso-bt/BT-MC-9760.txt
mejor-caso-bt,BT-MC-9770,9770,1000,instancias/mejor-caso-bt/BT-MC-9770.txt
mejor-caso-bt,BT-MC-9780,9780,1000,instancias/mejor-caso-bt/BT-MC-9780.txt
mejor-caso-bt,BT-MC-9790,9790,1000,instancias/mejor-caso-bt/BT-MC-9790.txt
mejor-caso-bt,BT-MC-9800,9800,1000,instancias/mejor-caso-bt/BT-MC-9800.txt
mejor-caso-bt,BT-MC-9810,9810,1000,instancias/mejor-caso-bt/BT-MC-9810.txt
mejor-caso-bt,BT-MC-9820,9820,1000,instancias/mejor-caso-bt/BT-MC-9820.txt
mejor-caso-bt,BT-MC-9830,9830,1000,instancias/mejor-caso-bt/BT-MC-9830.txt
mejor-caso-bt,BT-MC-9840,9840,1000,instancias/mejor-caso-bt/BT-MC-9840.txt
mejor-caso-bt,BT-MC-9850,9850,1000,instancias/mejor-caso-bt/BT-MC-9850.txt
mejor-caso-bt,BT-MC-9860,9860,1000,instancias/mejor-caso-bt/BT-MC-9860.txt
mejor-caso-bt,BT-MC-9870,9870,1000,instancias/mejor-caso-bt/BT-MC-9870.txt
mejor-caso-bt,BT-MC-9880,9880,1000,instancias/mejor-caso-bt/BT-MC-9880.txt
mejor-caso-bt,BT-MC-9890,9890,1000,instancias/mejor-caso-bt/BT-MC-9890.txt
mejor-caso-bt,BT-MC-9900,9900,1000,instancias/mejor-caso-bt/BT-MC-9900.txt
mejor-caso-bt,BT-MC-9910,9910,1000,instancias/mejor-caso-bt/BT-MC-9910.txt
mejor-caso-bt,BT-MC-9920,9920,1000,instancias/mejor-caso-bt/BT-MC-9920.txt
mejor-caso-bt,BT-MC-9930,9930,1000,instancias/mejor-caso-bt/BT-MC-9930.txt
mejor-caso-bt,BT-MC-9940,9940,1000,instancias/mejor-caso-bt/BT-MC-9940.txt
mejor-caso-bt,BT-MC-9950,9950,1000,instancias/mejor-caso-bt/BT-MC-9950.txt
mejor-caso-bt,BT-MC-9960,9960,1000,instancias/mejor-caso-bt/BT-MC-9960.txt
mejor-caso-bt,BT-MC-9970,9970,1000,instancias/mejor-caso-bt/BT-MC-9970.txt
mejor-caso-bt,BT-MC-9980,9980,1000,instancias/mejor-caso-bt/BT-MC-9980.txt
mejor-caso-bt,BT-MC-9990,9990,1000,instancias/mejor-caso-bt/BT-MC-9990.txt
mejor-caso-bt,BT-MC-10000,10000,1000,instancias/mejor-caso-bt/BT-MC-10000.txt
